"ID"	"Name"	"Chromosome"	"Start"	"End"	"Pattern"	"Score"	"Segments"	"SegmentLength"	"SegmentScore"	"SegmentMean"	"SegmentSD"	"MatchPlot"	"OptimizerPlot"
"GENE1"	"Gene 1"	"chr1"	0	10000	"pat2"	"{{.*}}"	"{{.*}}"	"{{.*}}"	"{{.*}}"	"{{.*}}"	"{{.*}}"	NA	NA
"GENE2"	"Gene 2"	"chr1"	8000	11000	"pat1"	"{{.*}}"	"{{.*}}"	"{{.*}}"	"{{.*}}"	"{{.*}}"	"{{.*}}"	NA	NA
"GENE2"	"Gene 2"	"chr1"	8000	11000	"pat2"	"{{.*}}"	"{{.*}}"	"{{.*}}"	"{{.*}}"	"{{.*}}"	"{{.*}}"	NA	NA
"GENE5"	"Gene 5"	"chr2"	8000	12000	"pat2"	"{{.*}}"	"{{.*}}"	"{{.*}}"	"{{.*}}"	"{{.*}}"	"{{.*}}"	NA	NA
"GENE6"	"Gene 6"	"chr2"	8000	12000	"pat2"	"{{.*}}"	"{{.*}}"	"{{.*}}"	"{{.*}}"	"{{.*}}"	"{{.*}}"	NA	NA
