"chr"	"start"	"end"	"numCs"	"coverage"	"percMeth"
"chr1"	10500	10500	0	27	0
"chr1"	10504	10504	0	27	0
"chr1"	10509	10509	27	27	100
"chr1"	10511	10511	24	27	88.8888888888889
"chr1"	10512	10512	23	27	85.1851851851852
"chr1"	10514	10514	27	27	100
"chr1"	10519	10519	26	27	96.2962962962963
"chr1"	10521	10521	11	12	91.6666666666667
"chr2"	10526	10526	0	12	0
"chr2"	10533	10533	1	12	8.33333333333333
"chr2"	10535	10535	6	21	28.5714285714286
"chr2"	10543	10543	10	21	47.6190476190476
"chr2"	10550	10550	6	21	28.5714285714286
"chr2"	10552	10552	4	21	19.047619047619
"chr2"	10555	10555	4	21	19.047619047619
"chr2"	10557	10557	1	21	4.76190476190476
"chr2"	10558	10558	6	21	28.5714285714286
