"gene_id"	"sample1"	"sample2"	"sample3"	"sample4"
ENSG00000000003	2.6430272677	3.3383088805	4.7187561554	4.5603664649
ENSG00000000005	0.132507618	0	1.8147554828	1.0301948039
ENSG00000000419	4.3680628901	4.1275424894	4.2255140223	4.3132458518
ENSG00000000457	1.9904938502	2.1063885241	1.3517753047	1.3437034379
ENSG00000000460	2.2493057676	2.3999448819	1.6506864493	1.3079006027
ENSG00000000938	1.3775235938	1.1224209292	2.2907635094	1.9718286161
ENSG00000000971	2.5813705312	3.5654631355	4.7317643307	4.1786588761
ENSG00000001036	2.2768569222	3.2238580731	3.920493396	3.8572246257
ENSG00000001084	3.0789854876	3.3103488466	3.3016198362	3.2354544229
ENSG00000001167	2.4765916602	2.857984975	3.4309047761	4.1321079317
ENSG00000001460	1.4861067946	1.4006089696	1.501928241	1.7088890959
ENSG00000001461	2.4853211974	3.0913460978	2.52326335	2.294579581
ENSG00000001497	3.330422155	2.9474005942	3.4031272641	3.6374943252
ENSG00000001561	1.432505154	1.7560027552	2.2453496213	2.184080303
ENSG00000001617	2.4134505639	2.9983146695	3.4163830864	2.9833967887
ENSG00000001629	3.7245738789	4.2666216518	3.2250527698	3.1516396689
ENSG00000001630	2.6517589408	2.4786198221	5.4234437104	5.0718699066
ENSG00000001631	3.4375233865	3.855431641	3.6011378691	3.5296710483
ENSG00000002016	2.5217216603	1.2310944292	2.1247350764	1.8620148964
ENSG00000002330	2.6376357476	3.8761534644	4.765386226	4.0514591133
ENSG00000002549	6.1830934317	4.87871063	5.5630330182	4.8833666606
ENSG00000002586	4.7375569779	6.1620972206	6.5794894277	6.8642232951
ENSG00000002822	3.4310318551	2.9547714122	3.5896196896	3.4292396763
ENSG00000002834	4.2776946918	4.1428463448	5.570235215	5.66479285
ENSG00000002919	2.7641274325	2.8983921852	3.0881721334	2.971714598
ENSG00000002933	3.6429441183	3.1694793001	4.9981142477	5.014582928
ENSG00000003056	4.8197805704	5.6800176672	5.0617891559	5.1412856364
ENSG00000003096	1.0286752288	1.5760431756	3.6867582283	3.3819934689
ENSG00000003137	1.0058239305	1.8043220769	1.0065206504	1.3681872436
ENSG00000003147	2.7058231215	4.1259816539	5.2191917583	4.5852510109
ENSG00000003249	2.8598980079	4.481014715	3.4706800212	3.1643872618
ENSG00000003393	1.8288305884	2.4689586035	2.1276960042	2.360552503
ENSG00000003400	1.5200752056	1.3101772265	1.8098342259	1.7197354368
ENSG00000003402	4.5945127206	4.7010166808	6.8982688264	6.2143910109
ENSG00000003436	1.887217203	2.0574779994	6.1845500801	6.0302698577
ENSG00000003509	2.053702199	1.8410029476	1.8217836743	1.9324391866
ENSG00000003756	4.1180357311	4.5093221368	5.7271607982	5.2276332701
ENSG00000003989	0.477728093	0.280071427	4.9463097787	5.0908449639
ENSG00000004059	4.9778751986	6.0986258878	6.3101037727	5.7873802223
ENSG00000004139	1.1696941518	0.9184114241	2.0547095827	1.9103949704
ENSG00000004142	3.6808194246	3.9359876964	4.6659611864	4.1487389127
ENSG00000004399	3.5778275912	4.0849741686	4.5422642416	4.2847732147
ENSG00000004455	5.7870014096	5.2449403222	5.7566230352	5.478418558
ENSG00000004468	2.0094080895	0.1415727373	0.2383613241	0.5968368927
ENSG00000004478	5.4556297024	5.5204222485	6.0583316499	6.3216828159
ENSG00000004487	3.8846369914	4.3197552033	4.9935203936	5.0258039905
ENSG00000004534	3.895157181	3.8180324747	5.1290892706	4.5537536886
ENSG00000004660	0.6078203029	1.2930113844	1.5513339005	1.880133023
ENSG00000004700	3.3738458463	3.3132618171	3.4743322018	3.7326165335
ENSG00000004766	2.674847036	2.4041892256	2.095853549	2.231331023
ENSG00000004776	1.45374934	0.8136773647	5.0562453571	5.6702568417
ENSG00000004777	1.6576400052	1.8059321356	2.5480863895	2.8521247178
ENSG00000004779	4.3320848985	5.0165364338	4.5075536424	4.0342685474
ENSG00000004799	2.041681052	0.6893662611	6.9330768627	7.3691523649
ENSG00000004864	2.6497120187	2.5959213228	2.7211101285	2.2743362172
ENSG00000004866	3.1277686292	2.9410067465	3.9923152519	3.9724261443
ENSG00000004897	4.1061472797	3.2690002215	4.7617107844	4.9171357386
ENSG00000004961	3.6488105441	3.9449521243	4.5702382514	4.4413440371
ENSG00000004975	2.0255497721	2.4514854451	4.0512154677	3.8228626863
ENSG00000005001	2.1998764668	1.783741603	4.7907042796	5.9278680166
ENSG00000005007	4.1602506249	3.3590783424	4.5533052031	4.5834288223
ENSG00000005020	3.6242529956	1.7657808322	4.6004243877	4.1072945056
ENSG00000005022	6.5497122908	5.9000045552	7.7250117187	7.2192750242
ENSG00000005059	4.6511033689	3.9348372745	4.0327973309	3.2843705081
ENSG00000005075	2.5094982336	3.8257449303	3.2596491206	3.3068790306
ENSG00000005100	1.5216337293	1.7847677898	3.0238975901	3.0507384994
ENSG00000005102	0.4771726846	0.0992670572	2.9999531116	3.0615844014
ENSG00000005156	3.7802155963	3.2491692153	3.2094814394	2.6706930684
ENSG00000005175	3.2666381416	3.3757567765	3.8918565954	3.6123996834
ENSG00000005187	0.8991284424	1.7421873451	2.4046306842	1.9749367337
ENSG00000005189	2.3014910735	1.2508221467	1.7652122255	1.3943934093
ENSG00000005194	3.9971568945	3.1587312582	3.0712718499	3.1514383482
ENSG00000005206	3.1882727286	4.0693326822	4.5090116979	4.1704939523
ENSG00000005238	1.8563523182	3.2961284501	2.1315565607	2.1428055101
ENSG00000005243	2.9555155403	3.2978825118	3.6539084117	3.1553201808
ENSG00000005249	1.7733170017	3.0674700714	2.694173712	2.7583522185
ENSG00000005302	3.6113848727	3.8667695361	3.5129853348	2.6108795612
ENSG00000005339	2.7946924214	3.3660885662	4.2079162718	4.5382463671
ENSG00000005379	2.5744139976	2.2197694859	3.7292155765	3.6069988257
ENSG00000005436	2.7180985466	2.8149523124	3.1752052088	2.7972745075
ENSG00000005448	1.8156492012	2.1666833133	2.4913964913	2.6385465465
ENSG00000005469	1.3939213573	2.412136571	2.3689359322	2.6156752434
ENSG00000005483	2.9196928464	2.9244476872	4.5726168642	5.3508861566
ENSG00000005486	3.2258795256	3.5297959646	4.5191015311	4.2409553847
ENSG00000005513	0.7625240122	1.070890749	2.1460621226	2.2952910328
ENSG00000005700	2.9074694811	3.1734392906	3.4389687901	3.6313255019
ENSG00000005801	1.9714313527	3.0138445457	3.4382928516	2.8807893407
ENSG00000005810	5.5402381016	4.1386506659	4.0731518468	4.575723779
ENSG00000005812	3.9136170851	2.8729055699	4.9869251166	5.0566398825
ENSG00000005844	2.9023939282	1.6659293611	1.6668701854	0.8084954368
ENSG00000005882	2.6835190537	2.3048614515	2.8922919283	2.9692849751
ENSG00000005884	2.3270233418	2.0598536274	4.8949050498	5.0491951056
ENSG00000005889	2.2590555014	2.4861016445	3.85760286	3.7681525587
ENSG00000005893	4.306342452	5.4271066403	6.6512138955	6.4709044875
ENSG00000006007	3.1740995655	4.2183394588	4.6525438574	4.6371349108
ENSG00000006015	3.6276418546	3.2409263907	4.7659643085	4.2619895765
ENSG00000006016	1.0451843249	2.3698405448	2.7555520575	2.7541627666
ENSG00000006025	1.4830805409	1.3593862277	1.6574433646	1.4445716614
ENSG00000006042	3.0258845869	2.731717635	4.5649085633	4.6163694606
ENSG00000006047	1.4778327262	0.7939466412	1.9746908266	1.3920151121
ENSG00000006062	1.6826362173	1.6518943809	2.6596369038	2.8644456826
ENSG00000006071	0.4598491528	0.3921833146	2.622967823	2.6972200279
ENSG00000006118	2.4848058194	5.7266595871	4.3454176665	3.4900052638
ENSG00000006125	5.2630569478	4.6837469758	5.583492006	6.0634554845
ENSG00000006128	0.0583511337	0	3.7679937176	2.3286210777
ENSG00000006194	2.3822605297	2.7676547982	4.314711025	4.5556198567
ENSG00000006210	4.5175717618	3.1248458902	7.8807283745	8.2381897522
ENSG00000006282	1.7601400255	2.0738921949	4.0860024344	3.7502634756
ENSG00000006283	0.240470651	0.0952555294	1.7934339798	1.6171715126
ENSG00000006327	2.9873044922	4.8917788436	7.2541877366	6.9703935379
ENSG00000006432	1.4411594211	1.2449966267	2.5062210862	2.4661702922
ENSG00000006451	3.6850318727	4.2258070492	4.3116992784	4.1054350384
ENSG00000006453	2.2203082833	3.5126314419	3.7377408344	3.4741634435
ENSG00000006459	1.7358817231	1.9923768926	3.216903358	3.5138949468
ENSG00000006468	1.6017725709	2.2884796431	3.0986418876	3.232809623
ENSG00000006530	2.7227414218	3.0510013737	2.5006032227	2.3886799977
ENSG00000006555	2.0605835376	2.0550567934	1.2505189984	1.1765589467
ENSG00000006576	2.5817657967	3.4062863129	3.0198726796	3.0410922555
ENSG00000006607	2.1905642939	2.2987785351	3.4209552731	3.6940444131
ENSG00000006625	5.0322948356	5.4489934286	4.4951962722	4.2958111702
ENSG00000006634	2.3591978491	2.0239224223	1.7478084376	1.8399837665
ENSG00000006652	4.9041950482	4.6046169768	7.2213937823	6.3910373219
ENSG00000006695	2.0162217324	2.435324556	2.2837203142	2.5959332542
ENSG00000006704	2.4478277789	2.1691457357	3.1779130098	3.1322280532
ENSG00000006712	3.5284963068	4.1463945491	5.8351990085	6.1687142327
ENSG00000006715	2.9151671151	4.0819105245	3.738378743	3.6038933487
ENSG00000006740	0.992665481	0.7050410065	2.1068106047	2.4682522541
ENSG00000006744	3.6039526761	3.5937959544	3.9302831719	3.8721294
ENSG00000006756	3.4355019193	3.8967368468	3.5470549219	3.793885481
ENSG00000006757	1.6841230248	2.936311912	3.155300749	2.7073414607
ENSG00000006831	3.5498416432	2.9932196555	4.8998523394	5.2331441321
ENSG00000007038	3.7509065885	0.7059071471	1.469114944	0.9810489031
ENSG00000007047	2.1697037712	1.770292031	4.1077631821	4.5678982904
ENSG00000007062	3.2900675198	4.3376968221	5.1311367192	4.3196323842
ENSG00000007080	3.6003054398	3.4105283497	5.627201169	5.4701756581
ENSG00000007129	1.6586502239	2.8415203193	0.3547319836	0.17450741
ENSG00000007168	4.0943965481	4.0264902449	6.1689588738	6.1171797024
ENSG00000007202	3.6466811045	4.3709384401	4.0946498984	3.6192838783
ENSG00000007216	0.3079367307	0	2.9877847097	2.9951480015
ENSG00000007237	1.58511638	3.0112523067	4.4375140652	4.1439810878
ENSG00000007255	3.7791336235	4.116689127	4.560348121	3.9621140204
ENSG00000007264	1.1509235538	1.4748098106	2.1677240149	1.0627572421
ENSG00000007312	1.8818055541	1.3698126331	2.1644226629	1.3962362261
ENSG00000007314	0.9846367407	0.0537796188	2.1146768546	1.7381625344
ENSG00000007341	2.2706425595	2.9402870484	2.9424563272	2.9438519555
ENSG00000007376	2.4063543491	2.8486780184	2.9068655887	2.3298411765
ENSG00000007384	2.1016601601	2.7658508317	4.5947635047	3.8098568578
ENSG00000007392	3.0543605518	3.9346297237	5.4493863918	5.1465126724
ENSG00000007516	0.3669258864	0.7450410864	1.9567480879	1.8485658574
ENSG00000007520	3.1794473537	4.270663488	3.5208873563	3.0987328309
ENSG00000007541	1.8181388521	2.9788326183	3.2218399695	2.6542086698
ENSG00000007545	1.3950957123	1.4111224885	2.9613473564	3.2403326492
ENSG00000007866	2.1736935242	2.4413028658	4.3553898615	4.6431000194
ENSG00000007908	0.5117928748	0.3281643518	8.5792631321	8.4844604131
ENSG00000007923	2.7898189606	3.6803918761	3.4419508456	3.1824968531
ENSG00000007933	0.3072594722	0.104280964	1.6640140021	0.6876672096
ENSG00000007944	3.4050379599	2.4863591252	5.0470977306	6.2429949449
ENSG00000008018	5.0913571005	5.6927033683	6.2328449189	5.7930765278
ENSG00000008083	2.1536691652	2.5102302621	3.0335886266	2.8116415955
ENSG00000008086	1.1090997474	1.9932359622	1.6299487322	1.941188963
ENSG00000008128	1.3199184644	1.729204698	3.3517993281	3.0378249788
ENSG00000008130	3.7936254169	5.0423554193	4.4392574312	4.1176534898
ENSG00000008196	0.1432941443	0	2.5344202389	2.2479548485
ENSG00000008256	2.9624213124	3.6375059177	3.9901561666	3.9682935448
ENSG00000008282	3.9175940614	4.221861618	5.5188089229	5.8112732116
ENSG00000008283	4.6370711344	4.2804961217	4.6494832539	4.5861522334
ENSG00000008294	4.5320613166	4.1326919905	6.0499356529	5.7583005118
ENSG00000008311	0.6418678252	0.9621891834	2.7283907509	2.7020989727
ENSG00000008323	2.0420909647	2.6392136374	2.9378019891	3.19364087
ENSG00000008324	2.8992839252	3.4651908879	3.201594657	3.5241012977
ENSG00000008382	1.6627068231	2.5114402073	3.0325099603	2.6197158391
ENSG00000008394	6.0829005376	4.3056349715	6.3054452786	6.2442610707
ENSG00000008405	2.713313098	2.5456842488	6.3393137906	5.3546848801
ENSG00000008441	5.4628539569	4.8562636638	5.1839390226	5.5886726657
ENSG00000008513	3.4077633373	3.3693994774	4.3855276738	4.4465738525
ENSG00000008517	4.5507590963	5.1368804073	5.9953307438	4.5050207324
ENSG00000008710	2.6073966022	2.4860887693	4.4859484217	4.3554462451
ENSG00000008735	3.23869516	0.4643744709	1.0524924092	1.1236397126
ENSG00000008838	3.9635758489	3.6540917828	6.3970037147	6.5946157265
ENSG00000008853	1.2515252056	1.5514028124	2.2485378721	2.4424870677
ENSG00000008869	2.4727346981	1.7765588392	2.7345904067	2.7010144621
ENSG00000008952	4.3010973982	4.8775823057	5.5571251503	5.9271166
ENSG00000008988	7.8104173963	9.0192626795	10.1873273269	9.6867018601
ENSG00000009307	6.062344093	7.2520409178	7.7654087702	7.6584257285
ENSG00000009335	4.5076170668	4.0169597906	4.2076430127	4.1375363119
ENSG00000009413	2.4951681246	2.951556091	2.6167858306	3.0209839379
ENSG00000009780	1.5562577288	1.6920477265	1.8477925103	1.9058052808
ENSG00000009790	3.5818935118	1.618186962	0.6047203904	0.5280581583
ENSG00000009830	2.0760220034	2.7685696979	3.1632604103	2.5779749849
ENSG00000009844	2.3938939077	3.6930073734	3.680808175	3.562364552
ENSG00000009954	3.9075540827	2.9445380195	3.4387585912	4.2196796668
ENSG00000010017	3.1607524232	3.754705818	4.3561438102	4.5707240012
ENSG00000010030	3.4419282774	1.089755752	1.2692127239	0.9390038551
ENSG00000010072	1.8013863231	2.5942188895	1.8431155546	2.2344614666
ENSG00000010165	3.3859900595	3.916409763	2.5629823599	2.7726056901
ENSG00000010219	2.3470277817	3.5495582847	3.1401242239	2.5796073891
ENSG00000010244	5.099598189	4.8667942588	6.8393171833	6.5000068861
ENSG00000010256	5.0881712851	5.2726876316	6.1487816132	5.3972690385
ENSG00000010270	2.6903388683	3.3717316969	3.7636665201	3.2922281192
ENSG00000010278	6.8452642201	7.1144815531	8.0148964253	7.7839280463
ENSG00000010292	4.6422048019	4.1580946185	2.3705409506	2.0840234332
ENSG00000010295	1.6681055057	2.0458203707	2.23542685	2.0222648231
ENSG00000010318	1.8995778272	1.8370713082	1.3915147863	1.974103416
ENSG00000010319	0.9158321604	0.0915912514	4.2047354554	4.2683370728
ENSG00000010322	2.8626795066	3.6464046225	4.5237877515	4.3262784681
ENSG00000010327	2.8337219815	3.4977017729	2.9074848636	2.9341258171
ENSG00000010361	2.6060039044	2.6575028169	3.5840364743	2.6626977097
ENSG00000010404	2.6253710303	4.050919557	4.3573338245	4.9820626506
ENSG00000010539	1.3055211587	2.0021660225	1.1694183662	1.4896405506
ENSG00000010610	3.5729745303	3.3353760617	3.3541657936	2.7095751759
ENSG00000010626	1.0737448411	1.3423271731	2.0119535646	2.0703618477
ENSG00000010671	1.6398017185	1.3828000354	0.8221827376	0.5804233815
ENSG00000010704	2.0922311219	2.4583295034	2.4182952109	1.9746027302
ENSG00000010803	3.0985627286	3.18260014	4.12142162	3.9407211652
ENSG00000010810	3.0018760866	2.7714165736	5.0914882798	5.3375683853
ENSG00000010818	1.6078013693	1.5015002912	5.0613398675	5.8890037627
ENSG00000010932	0.6956446743	1.4240083607	3.8890354107	3.0436104794
ENSG00000011007	2.7985358259	3.2860827145	3.9797144199	4.4548667997
ENSG00000011009	3.4347963377	4.119771162	4.4251101368	4.1070684821
ENSG00000011021	1.4192206545	1.7804696897	2.0839757949	1.9643875416
ENSG00000011028	2.4994632432	3.2558708012	4.9186915344	5.3592013638
ENSG00000011052	1.6088943828	1.7406383449	3.9594641527	3.5785402569
ENSG00000011105	3.2806891233	3.6527847549	4.8960635198	4.6222334265
ENSG00000011114	2.4712603088	3.194895504	2.9657732047	3.2584058564
ENSG00000011132	1.7904259163	2.2313371678	3.6841342486	2.5279360932
ENSG00000011143	2.2524701587	1.9690491575	2.3915202853	2.1159754161
ENSG00000011198	2.8430894174	3.3541164142	4.8785782203	4.9724077625
ENSG00000011201	1.13299791	0.9276310189	2.3840276964	2.4574498313
ENSG00000011243	3.093271135	2.6629164159	5.3403913572	5.5056686665
ENSG00000011258	2.593411143	2.0711345278	2.5385307142	2.2375208896
ENSG00000011260	3.7787973114	3.1501583306	4.5877790162	4.3738708967
ENSG00000011275	2.9299235227	3.0860041334	3.0889878971	3.018322601
ENSG00000011295	2.4357192597	2.5761278522	4.5091320801	3.8832493429
ENSG00000011304	4.6623365442	4.7351972094	7.2404288244	7.4035233758
ENSG00000011332	0.9758421915	0.5292942355	1.4238739402	2.0009770949
ENSG00000011347	2.050703678	2.5174697195	4.2642887045	3.8777835064
ENSG00000011376	1.7565963505	2.3643062795	2.1744799257	2.045712053
ENSG00000011405	2.9758025804	3.6436368835	3.6664612068	3.9873663474
ENSG00000011422	2.9337671246	4.2509918819	6.2212816339	6.09110952
ENSG00000011426	4.2637330421	3.3762528706	1.4114587874	0.5908683312
ENSG00000011451	2.6475033256	2.3734338442	3.6609058051	3.9093795009
ENSG00000011454	4.2856241549	3.7453664266	3.9882211323	4.1022969925
ENSG00000011465	5.3050402736	8.042753761	9.9768648027	9.8509197219
ENSG00000011478	1.8342945658	2.5262867023	2.9980817442	2.5662403964
ENSG00000011485	4.1567606424	3.7573860088	4.2113549097	3.6386878658
ENSG00000011523	1.1759077785	1.4054097199	2.4113042081	2.5724968139
ENSG00000011566	3.1971466949	2.4449505959	3.8549930168	3.7113407173
ENSG00000011600	5.392695222	6.3518668035	4.0218350273	3.5227713935
ENSG00000011638	3.1093889784	4.3286785172	6.0456264414	5.5819537508
ENSG00000012048	3.0195524784	0.5453931527	0.9731615915	1.1497666262
ENSG00000012061	3.5796990967	3.9337803412	5.3076835245	5.0958906724
ENSG00000012171	0.6436945989	1.3594705684	4.3123892695	3.776567261
ENSG00000012174	2.002914904	2.4358712451	2.2696436185	2.362172482
ENSG00000012211	1.2532874074	0.7868045968	2.5936549484	2.7554644648
ENSG00000012223	2.1144369923	6.4821093256	6.9437221103	6.9903536122
ENSG00000012232	2.2312910813	3.6175453375	3.0203528482	2.6837795332
ENSG00000012660	4.8747625454	5.01720929	7.2256605432	7.4755145786
ENSG00000012779	2.2877382324	3.0753803101	2.5076576569	2.9472210312
ENSG00000012822	2.6832360657	3.3961183783	5.6499487923	5.6307287136
ENSG00000012963	3.0834652859	2.5368088733	3.3864495378	3.7286280182
ENSG00000012983	3.4726437301	3.2513085666	4.3470703155	4.2325149451
ENSG00000013016	1.0911311056	2.2446770313	2.242175655	2.2497547819
ENSG00000013275	4.3805632298	4.4951450942	5.4297331157	5.4283668732
ENSG00000013288	1.3936084006	2.160484604	3.4283246598	3.5085300687
ENSG00000013297	1.0237308487	0.8715937174	2.6718096607	4.1411221137
ENSG00000013306	4.2151194245	4.1385769485	5.6049193696	4.9614288569
ENSG00000013364	4.069246742	4.2982697326	4.8497040871	4.9032455944
ENSG00000013374	5.2609778517	3.5710821369	4.9449427567	4.8741871091
ENSG00000013375	3.3805784673	3.697629276	4.6726403158	5.1921823269
ENSG00000013441	3.7452158153	3.7836976073	7.0505778788	6.4450429957
ENSG00000013503	1.630377512	1.4924480052	1.0638204383	1.4884430267
ENSG00000013523	2.2259689596	2.2574934479	2.7893745322	2.7471854297
ENSG00000013561	3.4454062454	3.9786349623	4.0384449614	3.6641414683
ENSG00000013563	2.4841175027	2.5151674408	3.3461626568	2.6798448793
ENSG00000013573	3.1347877188	2.7443742542	2.6546119715	2.4495402457
ENSG00000013583	2.7580558124	3.4835062497	4.9289198165	4.6416905226
ENSG00000013588	2.5905708827	3.998412162	5.8319177658	6.3402115219
ENSG00000013619	0.646842822	1.1019660092	2.6334009844	3.017018605
ENSG00000013725	1.6673335545	1.2273098045	1.2013264717	0.6000175453
ENSG00000013810	1.9566180044	1.4821409569	2.1473164687	1.3948707931
ENSG00000014123	2.0732375547	2.4598433837	2.6686501639	2.7803898966
ENSG00000014138	3.1322839969	2.8897830755	1.9780308455	1.5241489508
ENSG00000014164	2.5467339801	1.5803191764	2.8086589411	3.0960475922
ENSG00000014216	4.3176658546	4.6049905116	5.801857066	5.3938211636
ENSG00000014641	4.0141678019	4.201477038	5.1608596982	4.6791028382
ENSG00000014824	3.2824724247	4.5809956519	3.9884029361	3.5734230033
ENSG00000014914	3.0384695445	2.1998105229	2.5272154988	2.5296485623
ENSG00000014919	2.3110060499	1.7298920603	3.4722798004	3.2507054421
ENSG00000015133	3.4135507576	3.1685955066	3.0720920768	2.6353132747
ENSG00000015153	2.9309208556	2.49098337	4.671163139	3.8607046187
ENSG00000015171	3.217950333	4.4681010348	4.2290264236	4.4933911509
ENSG00000015285	1.658691349	1.7271667898	1.3948214159	1.3387609806
ENSG00000015475	3.01118252	4.1612669482	4.7254194313	3.6225321496
ENSG00000015479	5.3022276457	5.7133383957	6.8403247486	6.89282814
ENSG00000015532	2.39311412	2.1231066215	2.2245003069	2.1644612812
ENSG00000015676	4.3814564301	4.1418169571	4.5456904259	4.6328730898
ENSG00000016391	1.8786468787	2.3884458098	2.1885623404	1.7262165242
ENSG00000016402	0.4563624983	1.2559297012	1.8670503619	2.3429330051
ENSG00000016864	3.3483924894	4.4799419015	4.2936647616	4.2230826888
ENSG00000017260	4.179176612	5.646300928	4.8516940806	4.9361102283
ENSG00000017427	0.9082603131	0.6385372792	5.2717169946	4.8097385511
ENSG00000017483	3.9188727757	3.0500314607	2.6409910396	2.7485299311
ENSG00000017797	3.5066907941	3.8882854097	4.0596494633	4.2597093729
ENSG00000018189	2.4727684848	2.8809793233	4.2474262797	3.9021411287
ENSG00000018236	0.6231008412	0.9676777042	3.1188215005	3.8402416511
ENSG00000018280	1.5528541195	3.347628809	0.3452430703	0.5589728881
ENSG00000018408	4.1026749263	4.730547577	7.0554559824	7.4102902186
ENSG00000018510	2.0114920607	2.3256022846	2.0929685093	1.8882503352
ENSG00000018610	2.1844897795	1.8691133481	2.8513552756	2.8238634673
ENSG00000018625	0.7205647866	0.0475263837	1.6995383071	1.7330722824
ENSG00000018699	2.6378490142	3.3597263716	2.9284025405	2.8152618545
ENSG00000019102	0	0.8073433805	3.2291556647	2.4683773892
ENSG00000019144	4.2004180352	4.6949136139	4.6925276297	4.5771145733
ENSG00000019169	1.2774135055	3.4394462802	1.6526149837	0.6512202685
ENSG00000019186	0.5020362273	0.4666511321	6.2360562998	1.0863421959
ENSG00000019485	1.3726679871	1.2525186012	1.8934088112	2.1816146405
ENSG00000019505	0.5167060627	1.7203134923	0.5043030917	0.2845757248
ENSG00000019549	2.1978999804	2.7380111691	4.4730075679	5.3757727598
ENSG00000019582	7.8035241225	7.2912351759	9.5237011224	9.4963564861
ENSG00000019991	0.5336022182	1.0748616134	3.0572215024	2.9071252549
ENSG00000019995	2.1769227069	2.0889929835	3.9096291154	3.7273323684
ENSG00000020129	2.6007193361	2.3965732727	2.6432651408	2.6567411846
ENSG00000020181	1.1931913952	2.0478838404	4.418135964	4.8058960322
ENSG00000020256	1.865519	2.6120032842	1.9222473331	2.1635083932
ENSG00000020426	4.6036678821	3.3414392977	5.1440504496	4.7558009198
ENSG00000020577	1.4308526036	1.8972907738	4.7599707157	5.0434888722
ENSG00000020633	1.2961636991	0.6060451362	2.9193419895	3.7755457572
ENSG00000020922	2.3190600536	2.3449818462	2.7912097835	2.5633460835
ENSG00000021300	2.1656933079	3.7253267175	3.2983445246	3.1921341833
ENSG00000021355	3.4078544118	2.9486755966	5.2068815178	4.9923605762
ENSG00000021574	2.4231209538	3.093005707	2.3199618049	2.5277960058
ENSG00000021762	1.8394436713	2.574975824	3.7846505483	3.3404440572
ENSG00000021776	2.1755182139	1.6565421333	2.6990962767	3.0857390642
ENSG00000021826	0.6296596999	1.721403285	1.6634994702	1.4356659276
ENSG00000022267	2.2555007331	2.2868161068	5.704249502	5.9086640201
ENSG00000022277	4.2007318949	4.4415631549	4.8985324629	4.833284803
ENSG00000022556	2.8129787014	3.9760336296	2.0110232506	1.424400797
ENSG00000022567	3.1940886285	2.6507255047	2.5680515676	2.9226450526
ENSG00000022840	4.5567420779	4.9105120201	6.3358512288	6.6909478113
ENSG00000022976	1.350961098	2.0369569069	2.2265609344	1.8155303439
ENSG00000023041	2.0090640523	2.8172221121	3.6877437905	3.3985761158
ENSG00000023191	3.8606152383	5.0563884392	5.8282101248	5.9105360046
ENSG00000023228	4.0233440762	4.0311922589	4.2610794323	3.9721963551
ENSG00000023287	2.5940014638	2.8645308642	4.2153369061	4.288934344
ENSG00000023318	2.354596028	2.3813442912	3.8249103848	3.7167165917
ENSG00000023330	3.7594328387	3.3424196287	4.289613176	4.5362954019
ENSG00000023445	3.4873705792	2.3510346216	8.07881795	6.759062599
ENSG00000023516	2.2852068869	2.4231155739	2.4265868088	2.507304992
ENSG00000023572	3.4647205376	3.7137397988	2.5636389486	2.2379063024
ENSG00000023608	1.2255032254	1.963659073	2.5761568831	2.7079642468
ENSG00000023697	3.871547984	2.9958553207	3.7819786281	3.3555026265
ENSG00000023734	4.8507244266	3.9514852211	6.2820282891	6.2682378736
ENSG00000023892	2.8060662261	2.1110079352	2.0649276765	2.1268902821
ENSG00000023902	3.179870883	3.3924177209	4.8535665662	4.7874115679
ENSG00000023909	2.6180788694	2.5105087913	2.7466954276	3.5362270081
ENSG00000024048	3.2942354887	2.8010592992	2.370680433	2.4987640182
ENSG00000024422	1.8605099608	2.6941670244	4.870463362	5.2534371861
ENSG00000024526	2.8706566817	2.6864176049	0.3787901475	0.1143057174
ENSG00000024862	2.2695418911	3.0325699073	3.1180922278	3.2236619495
ENSG00000025039	2.3163890679	3.8807051137	2.7878503342	3.0071093678
ENSG00000025156	1.5483527733	2.0971084625	3.2448398816	3.0263503641
ENSG00000025293	3.5989011137	3.9447928673	3.7614874067	4.395001086
ENSG00000025423	0.9784511911	2.2871974417	0.3878135883	0.3717818707
ENSG00000025434	3.1811486781	2.9730179129	4.3493794327	3.5265821795
ENSG00000025708	5.6912689392	5.4625497141	5.09824268	4.1694841106
ENSG00000025770	3.8711733886	3.0428386679	3.8439938906	3.5256554804
ENSG00000025772	2.265472903	2.7900484241	4.0719685578	4.0746510001
ENSG00000025796	4.2080880082	5.2277372258	4.7667753549	4.9662043363
ENSG00000025800	3.3359048093	2.6720858444	3.7058120651	3.7723924394
ENSG00000026025	5.8688151484	7.7177655179	9.8002188259	10.0066346434
ENSG00000026103	2.8791803414	1.6461073451	4.5325413888	4.1645529957
ENSG00000026297	3.5915118746	5.0386776057	4.3845610162	3.7918765692
ENSG00000026508	5.4341311211	6.7973113461	7.3584050537	8.0872506646
ENSG00000026559	2.4845119716	2.8318590048	1.5316783912	1.9866075289
ENSG00000026652	0.615965208	2.5054031757	2.363002823	2.1388734334
ENSG00000026751	2.3298985675	0.902874704	1.1892869066	0.9203519978
ENSG00000026950	4.5253485367	3.4922505842	4.0401472256	3.6266844324
ENSG00000027001	2.1119594148	2.6820428634	2.654192627	2.2178604005
ENSG00000027075	3.2129754774	2.6649378774	5.054805074	4.6179684187
ENSG00000027697	4.1377576124	5.5773683998	6.2903285552	5.932800571
ENSG00000027847	2.3398243547	2.955243978	2.3881426867	2.0645793848
ENSG00000027869	1.5522491757	2.3828885504	1.4031531749	0.8357478688
ENSG00000028116	3.0212878291	3.2316843051	3.1762493593	2.9811329525
ENSG00000028137	3.1028294307	4.0972989655	4.1417679203	3.9420452599
ENSG00000028203	3.4835836378	4.3713009665	5.1469239919	5.1045169854
ENSG00000028310	1.8387662513	2.1929989457	3.2973983397	2.9438575803
ENSG00000028528	3.600364915	3.4632039204	5.2138993666	5.1726875204
ENSG00000028839	2.671569655	3.3289412741	3.9824095357	3.8451387433
ENSG00000029153	2.2622226615	2.9169275356	2.8334123271	2.1168105391
ENSG00000029363	3.6797728313	4.3738848134	4.8927115892	4.6578457632
ENSG00000029364	3.3156560699	3.7360528009	4.2784011353	4.2617940567
ENSG00000029534	0.7610980088	0.0329660596	2.2081894792	0.36197268
ENSG00000029639	2.0169811779	1.9938301246	1.7685696979	1.6280643194
ENSG00000029725	2.6337822506	3.4364603706	3.7452480904	4.2350836766
ENSG00000029993	3.9706696254	5.0110035644	3.0343548357	4.2434253619
ENSG00000030066	3.6561531033	4.170389795	3.6138380752	3.5260187172
ENSG00000030110	2.9730160755	2.3686789635	2.8167061897	2.5533359257
ENSG00000030419	2.6809521639	2.5556419416	1.0500558471	0.8793740651
ENSG00000030582	5.6410315148	5.5803173672	5.8292990596	5.7036240026
ENSG00000031003	2.3736649139	2.1988367137	3.2954659022	3.3759513435
ENSG00000031081	2.2016150433	2.6188541368	3.0603258627	3.6616128018
ENSG00000031691	2.0039008185	1.7797850053	0.9673907138	0.8783196429
ENSG00000031698	4.8732816848	4.997418875	6.4487077201	6.4838883132
ENSG00000031823	3.7738381262	4.4738388529	4.3569818515	4.5872509631
ENSG00000032219	2.3829604649	2.0337260458	2.8028053275	3.0266531271
ENSG00000032389	3.3133779235	2.7867991613	3.1632137075	2.0872863125
ENSG00000032444	3.3753119533	3.5772233615	3.1219835058	2.8654398157
ENSG00000032742	1.5638219591	1.9969382399	2.1701397867	2.3341191512
ENSG00000033011	2.9196795002	3.5006873466	2.1220199629	2.0474930203
ENSG00000033030	2.3227011723	1.993485975	4.0023424767	3.2997428614
ENSG00000033050	3.4559755064	2.7809210676	4.3995334314	4.6720858444
