"gene_id"	"gene_name"	"tumor_mean"	"tumor_median"	"tumor_sdev"	"normal_mean"	"normal_median"	"normal_sdev"
"ENSG00000000003"	"TSPAN6"	2.9906680741	2.9906680741	0.4916383432452	4.63956131015	4.63956131015	0.111998424222588
"ENSG00000000005"	"TNMD"	0.066253809	0.066253809	0.0936970352466766	1.42247514335	1.42247514335	0.554768176302512
"ENSG00000000419"	"DPM1"	4.24780268975	4.24780268975	0.170073606348676	4.26937993705	4.26937993705	0.062035771565352
"ENSG00000000457"	"SCYL3"	2.04844118715	2.04844118715	0.0819499098180937	1.3477393713	1.3477393713	0.00570767175111467
"ENSG00000000460"	"C1orf112"	2.32462532475	2.32462532475	0.106517939233465	1.479293526	1.479293526	0.242386196625632
"ENSG00000000938"	"FGR"	1.2499722615	1.2499722615	0.180384824037417	2.13129606275	2.13129606275	0.225521025809438
"ENSG00000000971"	"CFH"	3.07341683335	3.07341683335	0.69585855381606	4.4552116034	4.4552116034	0.391104617658928
"ENSG00000001036"	"FUCA2"	2.75035749765	2.75035749765	0.669630935592855	3.88885901085	3.88885901085	0.0447377765164641
"ENSG00000001084"	"GCLC"	3.1946671671	3.1946671671	0.163598600066998	3.26853712955	3.26853712955	0.0467860124244404
"ENSG00000001167"	"NFYA"	2.6672883176	2.6672883176	0.269685799194296	3.7815063539	3.7815063539	0.495825506314166
"ENSG00000001460"	"STPG1"	1.4433578821	1.4433578821	0.0604560918342008	1.60540866845	1.60540866845	0.146343423939955
"ENSG00000001461"	"NIPAL3"	2.7883336476	2.7883336476	0.428524316640742	2.4089214655	2.4089214655	0.161703843807198
"ENSG00000001497"	"LAS1L"	3.1389113746	3.1389113746	0.270837142982336	3.52031079465	3.52031079465	0.165722538190572
"ENSG00000001561"	"ENPP4"	1.5942539546	1.5942539546	0.228747347506101	2.21471496215	2.21471496215	0.043323950448607
"ENSG00000001617"	"SEMA3F"	2.7058826167	2.7058826167	0.413561375142365	3.19988993755	3.19988993755	0.306167547264527
"ENSG00000001626"	"CFTR"	0.131085001	0.131085001	0.119740582402451	0.32304344335	0.32304344335	0.0116091229336328
"ENSG00000001629"	"ANKIB1"	3.99559776535	3.99559776535	0.383285655944656	3.18834621935	3.18834621935	0.0519109014743221
"ENSG00000001630"	"CYP51A1"	2.56518938145	2.56518938145	0.122427844921433	5.2476568085	5.2476568085	0.248600220754529
"ENSG00000001631"	"KRIT1"	3.64647751375	3.64647751375	0.295505760670783	3.5654044587	3.5654044587	0.0505346736175238
"ENSG00000002016"	"RAD52"	1.87640804475	1.87640804475	0.912611267094827	1.9933749864	1.9933749864	0.18577122083255
"ENSG00000002079"	"MYH16"	0.0535444201	0.0535444201	0.0366129485515002	0.2288961783	0.2288961783	0.178284164222633
"ENSG00000002330"	"BAD"	3.256894606	3.256894606	0.87576427616896	4.40842266965	4.40842266965	0.504822702663103
"ENSG00000002549"	"LAP3"	5.53090203085	5.53090203085	0.922337924345178	5.2231998394	5.2231998394	0.480596690403321
"ENSG00000002586"	"CD99"	5.44982709925	5.44982709925	1.0073020656863	6.7218563614	6.7218563614	0.201337248472012
"ENSG00000002587"	"HS3ST1"	0.98490529065	0.98490529065	0.520223032980578	0.9867380874	0.9867380874	0.0657682446800508
"ENSG00000002726"	"AOC1"	0.23949366585	0.23949366585	0.33869519034752	0.1924101666	0.1924101666	0.061397950854252
"ENSG00000002745"	"WNT16"	0.0396209841	0.0396209841	0.0560325330687888	0.04230058945	0.04230058945	0.00519393965341011
"ENSG00000002746"	"HECW1"	0.81977520605	0.81977520605	0.354509328745735	0.21013021525	0.21013021525	0.0554283446189437
"ENSG00000002822"	"MAD1L1"	3.19290163365	3.19290163365	0.336766988785499	3.50942968295	3.50942968295	0.113405794971219
"ENSG00000002834"	"LASP1"	4.2102705183	4.2102705183	0.0953521805954967	5.6175140325	5.6175140325	0.0668623449214625
"ENSG00000002919"	"SNX11"	2.83125980885	2.83125980885	0.0949395171085048	3.0299433657	3.0299433657	0.0823479130016124
"ENSG00000002933"	"TMEM176A"	3.4062117092	3.4062117092	0.334790183602476	5.00634858785	5.00634858785	0.0116451155173233
"ENSG00000003056"	"M6PR"	5.2498991188	5.2498991188	0.608279484575508	5.10153739615	5.10153739615	0.0562125004420145
"ENSG00000003096"	"KLHL13"	1.3023592022	1.3023592022	0.387047586986437	3.5343758486	3.5343758486	0.215501228038426
"ENSG00000003137"	"CYP26B1"	1.4050730037	1.4050730037	0.564623454084328	1.187353947	1.187353947	0.255736900580357
"ENSG00000003147"	"ICA1"	3.4159023877	3.4159023877	1.00420372861998	4.9022213846	4.9022213846	0.448263801357008
"ENSG00000003249"	"DBNDD1"	3.67045636145	3.67045636145	1.14630261668522	3.3175336415	3.3175336415	0.21658168720008
"ENSG00000003393"	"ALS2"	2.14889459595	2.14889459595	0.452638860304695	2.2441242536	2.2441242536	0.164654409344837
"ENSG00000003400"	"CASP10"	1.41512621605	1.41512621605	0.148420284378962	1.76478483135	1.76478483135	0.0637094647493066
"ENSG00000003402"	"CFLAR"	4.6477647007	4.6477647007	0.0753096724806418	6.55632991865	6.55632991865	0.483574640843092
"ENSG00000003436"	"TFPI"	1.9723476012	1.9723476012	0.120392563704662	6.1074099689	6.1074099689	0.109092591462009
"ENSG00000003509"	"NDUFAF7"	1.9473525733	1.9473525733	0.150401083018242	1.87711143045	1.87711143045	0.0782452631230014
"ENSG00000003756"	"RBM5"	4.31367893395	4.31367893395	0.27668127085658	5.47739703415	5.47739703415	0.353219302508864
"ENSG00000003987"	"MTMR7"	0.13176061665	0.13176061665	0.186337651053072	0.31410334505	0.31410334505	0.0416277124377265
"ENSG00000003989"	"SLC7A2"	0.37889976	0.37889976	0.139764368875325	5.0185773713	5.0185773713	0.102201809574974
"ENSG00000004059"	"ARF5"	5.5382505432	5.5382505432	0.792490412352817	6.0487419975	6.0487419975	0.369621367173748
"ENSG00000004139"	"SARM1"	1.04405278795	1.04405278795	0.177683720751723	1.98255227655	1.98255227655	0.102045840981638
"ENSG00000004142"	"POLDIP2"	3.8084035605	3.8084035605	0.180431215333432	4.40735004955	4.40735004955	0.365731377113994
"ENSG00000004399"	"PLXND1"	3.8314008799	3.8314008799	0.358606783935088	4.41351872815	4.41351872815	0.182073651215677
"ENSG00000004455"	"AK2"	5.5159708659	5.5159708659	0.383295070717894	5.6175207966	5.6175207966	0.196720272384578
"ENSG00000004468"	"CD38"	1.0754904134	1.0754904134	1.32075904368058	0.4175991084	0.4175991084	0.253480505446763
"ENSG00000004478"	"FKBP4"	5.48802597545	5.48802597545	0.0458152487176524	6.1900072329	6.1900072329	0.186217395311984
"ENSG00000004487"	"KDM1A"	4.10219609735	4.10219609735	0.307675038252255	5.00966219205	5.00966219205	0.0228279502890831
"ENSG00000004534"	"RBM6"	3.85659482785	3.85659482785	0.054535402821751	4.8414214796	4.8414214796	0.406823691490109
"ENSG00000004660"	"CAMKK1"	0.95041584365	0.95041584365	0.484503260137194	1.71573346175	1.71573346175	0.232496089167936
"ENSG00000004700"	"RECQL"	3.3435538317	3.3435538317	0.0428393778789239	3.60347436765	3.60347436765	0.182634602419306
"ENSG00000004766"	"CCDC132"	2.5395181308	2.5395181308	0.191383973114943	2.163592286	2.163592286	0.0957970405634242
"ENSG00000004776"	"HSPB6"	1.13371335235	1.13371335235	0.452599234182098	5.3632510994	5.3632510994	0.434171684487079
"ENSG00000004777"	"ARHGAP33"	1.7317860704	1.7317860704	0.10485837100244	2.70010555365	2.70010555365	0.214987563681552
"ENSG00000004779"	"NDUFAB1"	4.67431066615	4.67431066615	0.483980322004174	4.2709110949	4.2709110949	0.334663100109019
"ENSG00000004799"	"PDK4"	1.36552365655	1.36552365655	0.956230958944258	7.1511146138	7.1511146138	0.308351944714949
"ENSG00000004809"	"SLC22A16"	0.30380677305	0.30380677305	0.00673867494525263	0.48391726435	0.48391726435	0.0756563192057502
"ENSG00000004838"	"ZMYND10"	0.3703883193	0.3703883193	0.254938985590695	1.0287682916	1.0287682916	0.266798135896012
"ENSG00000004846"	"ABCB5"	0.2125617372	0.2125617372	0.0109228706406117	0.49143910415	0.49143910415	0.38977693805667
"ENSG00000004848"	"ARX"	0.0936773828	0.0936773828	0.132479825243376	0.0626515437	0.0626515437	0.0568791993940578
"ENSG00000004864"	"SLC25A13"	2.62281667075	2.62281667075	0.0380357658356332	2.49772317285	2.49772317285	0.315916862337467
"ENSG00000004866"	"ST7"	3.03438768785	3.03438768785	0.132060593724337	3.9823706981	3.9823706981	0.0140637228557089
"ENSG00000004897"	"CDC27"	3.6875737506	3.6875737506	0.59195236170359	4.8394232615	4.8394232615	0.109902039080429
"ENSG00000004939"	"SLC4A1"	0.4175044324	0.4175044324	0.590440430650961	0.0309412131	0.0309412131	0.00312638226476969
"ENSG00000004948"	"CALCR"	0.23496856075	0.23496856075	0.268245758910293	0.15259640895	0.15259640895	0.0494800298637917
"ENSG00000004961"	"HCCS"	3.7968813342	3.7968813342	0.20940371955072	4.50579114425	4.50579114425	0.0911419729872419
"ENSG00000004975"	"DVL2"	2.2385176086	2.2385176086	0.301182002727556	3.937039077	3.937039077	0.161469800230749
"ENSG00000005001"	"PRSS22"	1.9918090349	1.9918090349	0.294251784081121	5.3592861481	5.3592861481	0.804096189752136
"ENSG00000005007"	"UPF1"	3.75966448365	3.75966448365	0.566514353854454	4.5683670127	4.5683670127	0.0213006154102015
"ENSG00000005020"	"SKAP2"	2.6950169139	2.6950169139	1.31413826938657	4.35385944665	4.35385944665	0.348695483638633
"ENSG00000005022"	"SLC25A5"	6.224858423	6.224858423	0.459412745632116	7.47214337145	7.47214337145	0.35760984617582
"ENSG00000005059"	"CCDC109B"	4.2929703217	4.2929703217	0.506476612484244	3.6585839195	3.6585839195	0.529217681623783
"ENSG00000005073"	"HOXA11"	0.1260739539	0.1260739539	0.133552039398539	0.1074779032	0.1074779032	0.0174724183513954
"ENSG00000005075"	"POLR2J"	3.16762158195	3.16762158195	0.930726964950963	3.2832640756	3.2832640756	0.0333965896358306
"ENSG00000005100"	"DHX33"	1.65320075955	1.65320075955	0.186063878540701	3.03731804475	3.03731804475	0.0189793889792432
"ENSG00000005102"	"MEOX1"	0.2882198709	0.2882198709	0.267219631783097	3.0307687565	3.0307687565	0.0435799029508534
"ENSG00000005108"	"THSD7A"	0.2397332263	0.2397332263	0.153950635598955	1.1201872933	1.1201872933	0.0616705672470359
"ENSG00000005156"	"LIG3"	3.5146924058	3.5146924058	0.375506497129675	2.9400872539	2.9400872539	0.380980910758554
"ENSG00000005175"	"RPAP3"	3.32119745905	3.32119745905	0.0771585266916089	3.7521281394	3.7521281394	0.197605877524652
"ENSG00000005187"	"ACSM3"	1.32065789375	1.32065789375	0.59613266703886	2.18978370895	2.18978370895	0.303839506233387
"ENSG00000005189"	"AC004381.6"	1.7761566101	1.7761566101	0.742935122922272	1.5798028174	1.5798028174	0.262208499526588
"ENSG00000005194"	"CIAPIN1"	3.57794407635	3.57794407635	0.592856452948376	3.11135509905	3.11135509905	0.0566862745719099
"ENSG00000005206"	"SPPL2B"	3.6288027054	3.6288027054	0.623003467822465	4.3397528251	4.3397528251	0.239368193465743
"ENSG00000005238"	"FAM214B"	2.57624038415	2.57624038415	1.01807546625703	2.1371810354	2.1371810354	0.00795420840196441
"ENSG00000005243"	"COPZ2"	3.12669902605	3.12669902605	0.242090007201952	3.40461429625	3.40461429625	0.352555119089194
"ENSG00000005249"	"PRKAR2B"	2.42039353655	2.42039353655	0.915104411478257	2.72626296525	2.72626296525	0.0453810571525748
"ENSG00000005302"	"MSL3"	3.7390772044	3.7390772044	0.180584227301184	3.061932448	3.061932448	0.637885109860096
"ENSG00000005339"	"CREBBP"	3.0803904938	3.0803904938	0.40403808873193	4.37308131945	4.37308131945	0.233578650416628
"ENSG00000005379"	"BZRAP1"	2.39709174175	2.39709174175	0.250771539133662	3.6681072011	3.6681072011	0.0864202932652666
"ENSG00000005381"	"MPO"	0.7362111854	0.7362111854	0.893804436918931	0.15977004295	0.15977004295	0.0194836521393299
"ENSG00000005421"	"PON1"	0.0531571281	0.0531571281	0.0477047088183712	0.43940023925	0.43940023925	0.200155790491085
"ENSG00000005436"	"GCFC2"	2.7665254295	2.7665254295	0.0684859545806338	2.98623985815	2.98623985815	0.267237361707818
"ENSG00000005448"	"WDR54"	1.99116625725	1.99116625725	0.248218601093709	2.5649715189	2.5649715189	0.104050801883895
"ENSG00000005469"	"CROT"	1.90302896415	1.90302896415	0.71998688231458	2.4923055878	2.4923055878	0.174471040134818
"ENSG00000005471"	"ABCB4"	0.49753469175	0.49753469175	0.325682856362319	0.2297567207	0.2297567207	0.131059900945217
"ENSG00000005483"	"KMT2E"	2.9220702668	2.9220702668	0.00336218017314246	4.9617515104	4.9617515104	0.550319494245296
"ENSG00000005486"	"RHBDD2"	3.3778377451	3.3778377451	0.214901374930968	4.3800284579	4.3800284579	0.196679026280346
"ENSG00000005513"	"SOX8"	0.9167073806	0.9167073806	0.218048210683647	2.2206765777	2.2206765777	0.105520774351498
"ENSG00000005700"	"IBTK"	3.04045438585	3.04045438585	0.188069055888344	3.535147146	3.535147146	0.136016735320526
"ENSG00000005801"	"ZNF195"	2.4926379492	2.4926379492	0.737097437568621	3.15954109615	3.15954109615	0.394214513092698
"ENSG00000005810"	"MYCBP2"	4.83944438375	4.83944438375	0.991071980209334	4.3244378129	4.3244378129	0.355372021292645
"ENSG00000005812"	"FBXL3"	3.3932613275	3.3932613275	0.735894169656847	5.02178249955	5.02178249955	0.0492957837167225
"ENSG00000005844"	"ITGAL"	2.28416164465	2.28416164465	0.874312480093299	1.2376828111	1.2376828111	0.606962605534358
"ENSG00000005882"	"PDK2"	2.4941902526	2.4941902526	0.267751358263458	2.9307884517	2.9307884517	0.054442305496493
"ENSG00000005884"	"ITGA3"	2.1934384846	2.1934384846	0.188917516779913	4.9720500777	4.9720500777	0.109099544725831
"ENSG00000005889"	"ZFX"	2.37257857295	2.37257857295	0.160545867428261	3.81287770935	3.81287770935	0.0632509146284098
"ENSG00000005893"	"LAMP2"	4.86672454615	4.86672454615	0.792499957657967	6.5610591915	6.5610591915	0.127498005108531
"ENSG00000005961"	"ITGA2B"	1.07008603345	1.07008603345	0.062698168691871	0.5001296093	0.5001296093	0.064412108343201
"ENSG00000005981"	"ASB4"	0.1350383886	0.1350383886	0.190973120599128	0.10535768755	0.10535768755	0.0979497505790822
"ENSG00000006007"	"GDE1"	3.69621951215	3.69621951215	0.738389109737947	4.6448393841	4.6448393841	0.0108957706318014
"ENSG00000006015"	"C19orf60"	3.43428412265	3.43428412265	0.273449126913392	4.5139769425	4.5139769425	0.356363950543873
"ENSG00000006016"	"CRLF1"	1.70751243485	1.70751243485	0.936673395832229	2.75485741205	2.75485741205	0.000982377016430884
"ENSG00000006025"	"OSBPL7"	1.4212333843	1.4212333843	0.0874650876579328	1.551007513	1.551007513	0.15052302485545
"ENSG00000006042"	"TMEM98"	2.87880111095	2.87880111095	0.208007446489467	4.59063901195	4.59063901195	0.036388349446774
"ENSG00000006047"	"YBX2"	1.1358896837	1.1358896837	0.48358048826262	1.68335296935	1.68335296935	0.412013948955667
"ENSG00000006059"	"KRT33A"	0	0	0	0.06682973065	0.06682973065	0.00367339123186083
"ENSG00000006062"	"MAP3K14"	1.6672652991	1.6672652991	0.0217377609845675	2.7620412932	2.7620412932	0.144821676336016
"ENSG00000006071"	"ABCC8"	0.4260162337	0.4260162337	0.0478469730458917	2.66009392545	2.66009392545	0.0525042376028427
"ENSG00000006116"	"CACNG3"	0.16765587065	0.16765587065	0.237101206084699	0	0	0
"ENSG00000006118"	"TMEM132A"	4.10573270325	4.10573270325	2.29233678275583	3.91771146515	3.91771146515	0.604867910660248
"ENSG00000006125"	"AP2B1"	4.9734019618	4.9734019618	0.409634009610189	5.82347374525	5.82347374525	0.339385430369234
"ENSG00000006128"	"TAC1"	0.02917556685	0.02917556685	0.0412604823291929	3.04830739765	3.04830739765	1.01779015432767
"ENSG00000006194"	"ZNF263"	2.57495766395	2.57495766395	0.272514900686779	4.43516544085	4.43516544085	0.170348268542798
"ENSG00000006210"	"CX3CL1"	3.821208826	3.821208826	0.984805908142305	8.05945906335	8.05945906335	0.252763364183956
"ENSG00000006282"	"SPATA20"	1.9170161102	1.9170161102	0.22185628659473	3.918132955	3.918132955	0.237403294475991
"ENSG00000006283"	"CACNA1G"	0.1678630902	0.1678630902	0.102682597214189	1.7053027462	1.7053027462	0.124636385825792
"ENSG00000006327"	"TNFRSF12A"	3.9395416679	3.9395416679	1.34666672847079	7.11229063725	7.11229063725	0.200672802362172
"ENSG00000006377"	"DLX6"	0.43075896255	0.43075896255	0.609185166951974	0.0829455934	0.0829455934	0.0200922670776252
"ENSG00000006432"	"MAP3K9"	1.3430780239	1.3430780239	0.138708042136742	2.4861956892	2.4861956892	0.0283201880293054
"ENSG00000006451"	"RALA"	3.95541946095	3.95541946095	0.382385794400502	4.2085671584	4.2085671584	0.14585084282029
"ENSG00000006453"	"BAIAP2L1"	2.8664698626	2.8664698626	0.913810468930478	3.60595213895	3.60595213895	0.186377360472847
"ENSG00000006459"	"KDM7A"	1.86412930785	1.86412930785	0.181369473695043	3.3653991524	3.3653991524	0.210004766395846
"ENSG00000006468"	"ETV1"	1.945126107	1.945126107	0.48557522744138	3.1657257553	3.1657257553	0.0948709155177825
"ENSG00000006530"	"AGK"	2.88687139775	2.88687139775	0.23211483798046	2.4446416102	2.4446416102	0.0791416713697677
"ENSG00000006534"	"ALDH3B1"	1.24273836775	1.24273836775	0.0537796412957431	1.1470149972	1.1470149972	0.140029804881588
"ENSG00000006555"	"TTC22"	2.0578201655	2.0578201655	0.00390799830170341	1.21353897255	1.21353897255	0.0522976540939777
"ENSG00000006576"	"PHTF2"	2.9940260548	2.9940260548	0.583024048232452	3.03048246755	3.03048246755	0.0150045060127926
"ENSG00000006606"	"CCL26"	0.137881387	0.137881387	0.194993727494213	0.39348759965	0.39348759965	0.251734009043593
"ENSG00000006607"	"FARP2"	2.2446714145	2.2446714145	0.0765190237734765	3.5574998431	3.5574998431	0.193103182762402
"ENSG00000006611"	"USH1C"	0.1615368584	0.1615368584	0.228447615972422	0.23302377405	0.23302377405	0.0804726230379454
"ENSG00000006625"	"GGCT"	5.2406441321	5.2406441321	0.294650400821193	4.3955037212	4.3955037212	0.140986557691771
"ENSG00000006634"	"DBF4"	2.1915601357	2.1915601357	0.237075527855494	1.79389610205	1.79389610205	0.0651778001232904
"ENSG00000006638"	"TBXA2R"	0.54982844225	0.54982844225	0.206114511595314	0.79015550645	0.79015550645	0.226211966998236
"ENSG00000006652"	"IFRD1"	4.7544060125	4.7544060125	0.211833685781728	6.8062155521	6.8062155521	0.587150683950899
"ENSG00000006695"	"COX10"	2.2257731442	2.2257731442	0.296350448581989	2.4398267842	2.4398267842	0.220767887048189
"ENSG00000006704"	"GTF2IRD1"	2.3084867573	2.3084867573	0.197057962541642	3.1550705315	3.1550705315	0.0323041426100732
"ENSG00000006712"	"PAF1"	3.83744542795	3.83744542795	0.436920037213578	6.0019566206	6.0019566206	0.235830876660772
"ENSG00000006715"	"VPS41"	3.4985388198	3.4985388198	0.825012176691452	3.67113604585	3.67113604585	0.0950955342800766
"ENSG00000006740"	"ARHGAP44"	0.84885324375	0.84885324375	0.203381216354167	2.2875314294	2.2875314294	0.25557784129399
"ENSG00000006744"	"ELAC2"	3.59887431525	3.59887431525	0.00718188678869459	3.90120628595	3.90120628595	0.0411209264620659
"ENSG00000006747"	"SCIN"	0.83703015735	0.83703015735	0.0868835414743281	0.69767945425	0.69767945425	0.294484638657516
"ENSG00000006756"	"ARSD"	3.66611938305	3.66611938305	0.326142344955336	3.67047020145	3.67047020145	0.174535562143677
"ENSG00000006757"	"PNPLA4"	2.3102174684	2.3102174684	0.885431253465557	2.93132110485	2.93132110485	0.31675505045243
"ENSG00000006788"	"MYH13"	0.01534121245	0.01534121245	0.021695750710037	0.0143955626	0.0143955626	0.0124906858977921
"ENSG00000006831"	"ADIPOR2"	3.27153064935	3.27153064935	0.393591182060205	5.06649823575	5.06649823575	0.235672886731991
"ENSG00000006837"	"CDKL3"	0.97629902115	0.97629902115	0.691885166380452	0.69805587725	0.69805587725	0.141467749018248
"ENSG00000007001"	"UPP2"	0.0202210286	0.0202210286	0.0285968528912542	0.10336298675	0.10336298675	0.0360471282812878
"ENSG00000007038"	"PRSS21"	2.2284068678	2.2284068678	2.15313975372319	1.22508192355	1.22508192355	0.345114807187261
"ENSG00000007047"	"MARK4"	1.9699979011	1.9699979011	0.28242674998094	4.33783073625	4.33783073625	0.325364655340936
"ENSG00000007062"	"PROM1"	3.81388217095	3.81388217095	0.740785783826061	4.7253845517	4.7253845517	0.573820218240779
"ENSG00000007080"	"CCDC124"	3.50541689475	3.50541689475	0.134192667323561	5.54868841355	5.54868841355	0.111033803576672
"ENSG00000007129"	"CEACAM21"	2.2500852716	2.2500852716	0.836415465720118	0.2646196968	0.2646196968	0.127438018129014
"ENSG00000007168"	"PAFAH1B1"	4.0604433965	4.0604433965	0.0480170074780298	6.1430692881	6.1430692881	0.036613403221161
"ENSG00000007171"	"NOS2"	0.02820700085	0.02820700085	0.0398907231559394	0.13670770145	0.13670770145	0.0129562443661293
"ENSG00000007174"	"DNAH9"	0.06776139355	0.06776139355	0.0958290817637108	0.3724848591	0.3724848591	0.109879458191057
"ENSG00000007202"	"KIAA0100"	4.0088097723	4.0088097723	0.512127273326861	3.85696688835	3.85696688835	0.336134536358371
"ENSG00000007216"	"SLC13A2"	0.15396836535	0.15396836535	0.217744150454386	2.9914663556	2.9914663556	0.00520663356363526
"ENSG00000007237"	"GAS7"	2.29818434335	2.29818434335	1.00843038466333	4.2907475765	4.2907475765	0.207559158821418
"ENSG00000007255"	"TRAPPC6A"	3.94791137525	3.94791137525	0.238687785551689	4.2612310707	4.2612310707	0.423015389271295
"ENSG00000007264"	"MATK"	1.3128666822	1.3128666822	0.229022168516408	1.6152406285	1.6152406285	0.781329498032695
"ENSG00000007306"	"CEACAM7"	0.04031518905	0.04031518905	0.0570142871241453	0.04575789855	0.04575789855	0.0380594662164612
"ENSG00000007312"	"CD79B"	1.6258090936	1.6258090936	0.362033666358608	1.7803294445	1.7803294445	0.543189838676811
"ENSG00000007314"	"SCN4A"	0.51920817975	0.51920817975	0.658215383211283	1.9264196945	1.9264196945	0.266235829027263
"ENSG00000007341"	"ST7L"	2.60546480395	2.60546480395	0.47351015908539	2.94315414135	2.94315414135	0.000986858234945898
"ENSG00000007350"	"TKTL1"	0.08459179315	0.08459179315	0.119630861138189	0.12428126625	0.12428126625	0.0514192106728048
"ENSG00000007372"	"PAX6"	0.3322265634	0.3322265634	0.361284581193407	0.3158992209	0.3158992209	0.0789779666746922
"ENSG00000007376"	"RPUSD1"	2.62751618375	2.62751618375	0.312770066041346	2.6183533826	2.6183533826	0.408017874776802
"ENSG00000007384"	"RHBDF1"	2.4337554959	2.4337554959	0.469653727889207	4.20231018125	4.20231018125	0.555012812621385
"ENSG00000007392"	"LUC7L"	3.49449513775	3.49449513775	0.622444300719957	5.2979495321	5.2979495321	0.214164060830932
"ENSG00000007402"	"CACNA2D2"	0.1562448814	0.1562448814	0.220963630327256	1.21600689305	1.21600689305	0.108101310556989
"ENSG00000007516"	"BAIAP3"	0.5559834864	0.5559834864	0.267367821989708	1.90265697265	1.90265697265	0.0764963887904363
"ENSG00000007520"	"TSR3"	3.72505542085	3.72505542085	0.7716063283037	3.3098100936	3.3098100936	0.298508327618929
"ENSG00000007541"	"PIGQ"	2.3984857352	2.3984857352	0.820734432960973	2.93802431965	2.93802431965	0.401375941231603
"ENSG00000007545"	"CRAMP1L"	1.4031091004	1.4031091004	0.0113326421315791	3.1008400028	3.1008400028	0.197272392390194
"ENSG00000007866"	"TEAD3"	2.307498195	2.307498195	0.189228380154227	4.49924494045	4.49924494045	0.203441803667343
"ENSG00000007908"	"SELE"	0.4199786133	0.4199786133	0.12984497383257	8.5318617726	8.5318617726	0.0670356454798218
"ENSG00000007923"	"DNAJC11"	3.23510541835	3.23510541835	0.629730147691124	3.31222384935	3.31222384935	0.183461677502674
"ENSG00000007933"	"FMO3"	0.2057702181	0.2057702181	0.143527479583349	1.17584060585	1.17584060585	0.690381437766485
"ENSG00000007944"	"MYLIP"	2.94569854255	2.94569854255	0.649604033748925	5.64504633775	5.64504633775	0.845627029833632
"ENSG00000007952"	"NOX1"	0.0449953356	0.0449953356	0.0636330138490489	0	0	0
"ENSG00000007968"	"E2F2"	0.99623944745	0.99623944745	0.00789754616782087	0.18737228325	0.18737228325	0.0158069313537686
"ENSG00000008018"	"PSMB1"	5.3920302344	5.3920302344	0.425216023802602	6.01296072335	6.01296072335	0.310963211498307
"ENSG00000008056"	"SYN1"	0.0237688454	0.0237688454	0.0336142235266293	0.43836872485	0.43836872485	0.0852205130162686
"ENSG00000008083"	"JARID2"	2.33194971365	2.33194971365	0.252126769525303	2.92261511105	2.92261511105	0.156940250755032
"ENSG00000008086"	"CDKL5"	1.5511678548	1.5511678548	0.625178712977686	1.7855688476	1.7855688476	0.220080077776746
"ENSG00000008118"	"CAMK1G"	0.1103695901	0.1103695901	0.036689994764957	0.2023257881	0.2023257881	0.0162113825026037
"ENSG00000008128"	"CDK11A"	1.5245615812	1.5245615812	0.289409071224861	3.19481215345	3.19481215345	0.222013391508664
"ENSG00000008130"	"NADK"	4.4179904181	4.4179904181	0.882985452568134	4.2784554605	4.2784554605	0.227408327820261
"ENSG00000008196"	"TFAP2B"	0.07164707215	0.07164707215	0.101324261138854	2.3911875437	2.3911875437	0.202561620127092
"ENSG00000008197"	"TFAP2D"	0.05210518405	0.05210518405	0.0736878579534563	0	0	0
"ENSG00000008226"	"DLEC1"	0.4009683575	0.4009683575	0.567054889258964	0.3182455976	0.3182455976	0.125568826749203
"ENSG00000008256"	"CYTH3"	3.29996361505	3.29996361505	0.477356902282274	3.9792248557	3.9792248557	0.0154592081292968
"ENSG00000008277"	"ADAM22"	0.85256354465	0.85256354465	0.0641398512313727	0.7272845182	0.7272845182	0.106476220569772
"ENSG00000008282"	"SYPL1"	4.0697278397	4.0697278397	0.215149652566922	5.66504106725	5.66504106725	0.20680348179467
"ENSG00000008283"	"CYB561"	4.45878362805	4.45878362805	0.25213660948185	4.61781774365	4.61781774365	0.0447817940550141
"ENSG00000008294"	"SPAG9"	4.33237665355	4.33237665355	0.282396758683212	5.90411808235	5.90411808235	0.206217185904106
"ENSG00000008300"	"CELSR3"	0.41466097875	0.41466097875	0.31000984615387	0.863837062	0.863837062	0.380018219382779
"ENSG00000008311"	"AASS"	0.8020285043	0.8020285043	0.226501404542105	2.7152448618	2.7152448618	0.0185910946546727
"ENSG00000008323"	"PLEKHG6"	2.34065230105	2.34065230105	0.422229491066406	3.06572142955	3.06572142955	0.180905407575567
"ENSG00000008324"	"SS18L2"	3.18223740655	3.18223740655	0.400156650845853	3.36284797735	3.36284797735	0.228046632616664
"ENSG00000008382"	"MPND"	2.0870735152	2.0870735152	0.600145131387228	2.8261128997	2.8261128997	0.291889522334462
"ENSG00000008394"	"MGST1"	5.19426775455	5.19426775455	1.25671653375866	6.27485317465	6.27485317465	0.0432637683076171
"ENSG00000008405"	"CRY1"	2.6294986734	2.6294986734	0.118531495991817	5.84699933535	5.84699933535	0.696237779566873
"ENSG00000008438"	"PGLYRP1"	0.1696599243	0.1696599243	0.239935365936253	0	0	0
"ENSG00000008441"	"NFIX"	5.15955881035	5.15955881035	0.428924109652945	5.38630584415	5.38630584415	0.286189903610346
"ENSG00000008513"	"ST3GAL1"	3.38858140735	3.38858140735	0.0271273454877807	4.41605076315	4.41605076315	0.0431661669242957
"ENSG00000008516"	"MMP25"	0.44146028455	0.44146028455	0.0691192393431537	0.7820100541	0.7820100541	0.3419150695943
"ENSG00000008517"	"IL32"	4.8438197518	4.8438197518	0.414450353606049	5.2501757381	5.2501757381	1.05380831513114
"ENSG00000008710"	"PKD1"	2.54674268575	2.54674268575	0.0857775912546348	4.4206973334	4.4206973334	0.0922789740334646
"ENSG00000008735"	"MAPK8IP2"	1.85153481545	1.85153481545	1.96174097244875	1.0880660609	1.0880660609	0.0503087406972766
"ENSG00000008838"	"MED24"	3.80883381585	3.80883381585	0.218838281808496	6.4958097206	6.4958097206	0.139732793587696
"ENSG00000008853"	"RHOBTB2"	1.401464009	1.401464009	0.212045489294273	2.3455124699	2.3455124699	0.137142791414436
"ENSG00000008869"	"HEATR5B"	2.12464676865	2.12464676865	0.492270670726559	2.7178024344	2.7178024344	0.0237417781114041
"ENSG00000008952"	"SEC62"	4.58933985195	4.58933985195	0.40763638734495	5.74212087515	5.74212087515	0.261623463063911
"ENSG00000008988"	"RPS20"	8.4148400379	8.4148400379	0.854782697156093	9.9370145935	9.9370145935	0.353995662408961
"ENSG00000009307"	"CSDE1"	6.6571925054	6.6571925054	0.841242692372184	7.71191724935	7.71191724935	0.0756484342580328
"ENSG00000009335"	"UBE3C"	4.2622884287	4.2622884287	0.346947087239541	4.1725896623	4.1725896623	0.0495729235422965
"ENSG00000009413"	"REV3L"	2.7233621078	2.7233621078	0.322715025893378	2.81888488425	2.81888488425	0.285811222614598
"ENSG00000009694"	"TENM1"	0.05537538055	0.05537538055	0.0783126141953813	0.3724113553	0.3724113553	0.130003727931649
"ENSG00000009709"	"PAX7"	0.2086647369	0.2086647369	0.120564362792483	0	0	0
"ENSG00000009724"	"MASP2"	0.421798805	0.421798805	0.471318483102026	0.8691632754	0.8691632754	0.0162993543643578
"ENSG00000009765"	"IYD"	0.075484516	0.075484516	0.106751226276369	0.1450922127	0.1450922127	0.141069241101909
"ENSG00000009780"	"FAM76A"	1.62415272765	1.62415272765	0.0960180281909758	1.87679889555	1.87679889555	0.0410212234159689
"ENSG00000009790"	"TRAF3IP3"	2.6000402369	2.6000402369	1.38855021762402	0.56638927435	0.56638927435	0.054208384178807
"ENSG00000009830"	"POMT2"	2.42229585065	2.42229585065	0.489705171076059	2.8706176976	2.8706176976	0.413859293229993
"ENSG00000009844"	"VTA1"	3.04345064055	3.04345064055	0.918611941127227	3.6215863635	3.6215863635	0.083752289011603
"ENSG00000009950"	"MLXIPL"	0.3936338953	0.3936338953	0.556682393343011	0.7159212016	0.7159212016	0.442110966147736
"ENSG00000009954"	"BAZ1B"	3.4260460511	3.4260460511	0.680955188680293	3.829219129	3.829219129	0.552194588128253
"ENSG00000010017"	"RANBP9"	3.4577291206	3.4577291206	0.419988473171851	4.4634339057	4.4634339057	0.151731108164405
"ENSG00000010030"	"ETV7"	2.2658420147	2.2658420147	1.66323714323103	1.1041082895	1.1041082895	0.233492930336419
"ENSG00000010072"	"SPRTN"	2.1978026063	2.1978026063	0.560617284046974	2.0387885106	2.0387885106	0.276723348164834
"ENSG00000010165"	"METTL13"	3.65119991125	3.65119991125	0.375063369219808	2.667794025	2.667794025	0.148226078279327
"ENSG00000010219"	"DYRK4"	2.9482930332	2.9482930332	0.85031747325497	2.8598658065	2.8598658065	0.3963452548563
"ENSG00000010244"	"ZNF207"	4.9831962239	4.9831962239	0.1646172377313	6.6696620347	6.6696620347	0.239928612076543
"ENSG00000010256"	"UQCRC1"	5.18042945835	5.18042945835	0.130472759849917	5.77302532585	5.77302532585	0.531399637717332
"ENSG00000010270"	"STARD3NL"	3.0310352826	3.0310352826	0.481817489754943	3.52794731965	3.52794731965	0.333357290188132
"ENSG00000010278"	"CD9"	6.9798728866	6.9798728866	0.190365401777257	7.8994122358	7.8994122358	0.163319307030565
"ENSG00000010282"	"HHATL"	0.30465007425	0.30465007425	0.43084026678232	0.22241992595	0.22241992595	0.121764570841084
"ENSG00000010292"	"NCAPD2"	4.4001497102	4.4001497102	0.342317593523603	2.2272821919	2.2272821919	0.202598479482275
"ENSG00000010295"	"IFFO1"	1.8569629382	1.8569629382	0.267084742396461	2.12884583655	2.12884583655	0.150728314712459
"ENSG00000010310"	"GIPR"	0.62583228225	0.62583228225	0.885060501328857	1.00346976455	1.00346976455	0.230791549157759
"ENSG00000010318"	"PHF7"	1.8683245677	1.8683245677	0.0441987834532656	1.68280910115	1.68280910115	0.411952370703048
"ENSG00000010319"	"SEMA3G"	0.5037117059	0.5037117059	0.582826336085264	4.2365362641	4.2365362641	0.0449731349579722
"ENSG00000010322"	"NISCH"	3.25454206455	3.25454206455	0.554177344039103	4.4250331098	4.4250331098	0.139660153639435
"ENSG00000010327"	"STAB1"	3.1657118772	3.1657118772	0.469504613069769	2.92080534035	2.92080534035	0.0188379988771254
"ENSG00000010361"	"FUZ"	2.63175336065	2.63175336065	0.0364152302524827	3.123367092	3.123367092	0.651484888218696
"ENSG00000010379"	"SLC6A13"	0.3853709766	0.3853709766	0.544996861652685	0.0602804817	0.0602804817	0.0852494747665232
"ENSG00000010404"	"IDS"	3.33814529365	3.33814529365	1.00801503014006	4.66969823755	4.66969823755	0.441749989338021
"ENSG00000010438"	"PRSS3"	0.38483129055	0.38483129055	0.544233630321351	0.26535148415	0.26535148415	0.164981335851767
"ENSG00000010539"	"ZNF200"	1.6538435906	1.6538435906	0.492602307271759	1.3295294584	1.3295294584	0.226431278075609
"ENSG00000010610"	"CD4"	3.454175296	3.454175296	0.168007488346599	3.03187048475	3.03187048475	0.455794396864895
"ENSG00000010626"	"LRRC23"	1.2080360071	1.2080360071	0.189916388264097	2.04115770615	2.04115770615	0.0413008930574736
"ENSG00000010671"	"BTK"	1.51130087695	1.51130087695	0.181727632896366	0.70130305955	0.70130305955	0.170949680113603
"ENSG00000010704"	"HFE"	2.27528031265	2.27528031265	0.25887064814007	2.19644897055	2.19644897055	0.313737961864452
"ENSG00000010803"	"SCMH1"	3.1405814343	3.1405814343	0.0594234234743035	4.0310713926	4.0310713926	0.127774516952573
"ENSG00000010810"	"FYN"	2.8866463301	2.8866463301	0.162959484431249	5.21452833255	5.21452833255	0.174004911314151
"ENSG00000010818"	"HIVEP2"	1.55465083025	1.55465083025	0.0751662131719508	5.4751718151	5.4751718151	0.585246752839192
"ENSG00000010932"	"FMO1"	1.0598265175	1.0598265175	0.515030901823472	3.46632294505	3.46632294505	0.597805701906401
"ENSG00000011007"	"TCEB3"	3.0423092702	3.0423092702	0.344747711075462	4.2172906098	4.2172906098	0.335983469853506
"ENSG00000011009"	"LYPLA2"	3.77728374985	3.77728374985	0.484350343204594	4.26608930945	4.26608930945	0.22488941073816
"ENSG00000011021"	"CLCN6"	1.5998451721	1.5998451721	0.255441642487018	2.02418166825	2.02418166825	0.0845616648586846
"ENSG00000011028"	"MRC2"	2.8776670222	2.8776670222	0.534860913602557	5.1389464491	5.1389464491	0.311487487548069
"ENSG00000011052"	"NME2"	1.67476636385	1.67476636385	0.0931570489812936	3.7690022048	3.7690022048	0.269353869836178
"ENSG00000011083"	"SLC6A7"	0.25412641405	0.25412641405	0.141026482849826	0.1540832355	0.1540832355	0.190238112515727
"ENSG00000011105"	"TSPAN9"	3.4667369391	3.4667369391	0.263111344354251	4.75914847315	4.75914847315	0.193627115865375
"ENSG00000011114"	"BTBD7"	2.8330779064	2.8330779064	0.511687353631171	3.11208953055	3.11208953055	0.206922532413671
"ENSG00000011132"	"APBA3"	2.01088154205	2.01088154205	0.311771335837097	3.1060351709	3.1060351709	0.817555556078718
"ENSG00000011143"	"MKS1"	2.1107596581	2.1107596581	0.200408911879201	2.2537478507	2.2537478507	0.19483964553248
"ENSG00000011198"	"ABHD5"	3.0986029158	3.0986029158	0.361350654806676	4.9254929914	4.9254929914	0.0663475055652493
"ENSG00000011201"	"KAL1"	1.03031446445	1.03031446445	0.145216321328009	2.42073876385	2.42073876385	0.0519172894769834
"ENSG00000011243"	"AKAP8L"	2.87809377545	2.87809377545	0.304306740191242	5.42303001185	5.42303001185	0.116868706182297
"ENSG00000011258"	"MBTD1"	2.3322728354	2.3322728354	0.369305336263077	2.3880258019	2.3880258019	0.212846088178434
"ENSG00000011260"	"UTP18"	3.464477821	3.464477821	0.44451488624188	4.48082495645	4.48082495645	0.151255881849312
"ENSG00000011275"	"RNF216"	3.00796382805	3.00796382805	0.110365658237708	3.05365524905	3.05365524905	0.0499679100668653
"ENSG00000011295"	"TTC19"	2.50592355595	2.50592355595	0.0992838678936086	4.1961907115	4.1961907115	0.442565927701717
"ENSG00000011304"	"PTBP1"	4.6987668768	4.6987668768	0.0515202704446823	7.3219761001	7.3219761001	0.115325263269518
"ENSG00000011332"	"DPF1"	0.7525682135	0.7525682135	0.315757087812592	1.71242551755	1.71242551755	0.408073554132519
"ENSG00000011347"	"SYT7"	2.28408669875	2.28408669875	0.330053433172252	4.07103610545	4.07103610545	0.27330044654036
"ENSG00000011376"	"LARS2"	2.060451315	2.060451315	0.429715811790295	2.11009598935	2.11009598935	0.0910526359851362
"ENSG00000011405"	"PIK3C2A"	3.30971973195	3.30971973195	0.472230164431002	3.8269137771	3.8269137771	0.226914201035882
"ENSG00000011422"	"PLAUR"	3.59237950325	3.59237950325	0.931418558233634	6.15619557695	6.15619557695	0.092045584460078
"ENSG00000011426"	"ANLN"	3.81999295635	3.81999295635	0.62754324743625	1.0011635593	1.0011635593	0.580245076155983
"ENSG00000011451"	"WIZ"	2.5104685849	2.5104685849	0.19379638881422	3.785142653	3.785142653	0.175697435246663
"ENSG00000011454"	"RABGAP1"	4.01549529075	4.01549529075	0.382019903269369	4.0452590624	4.0452590624	0.0806638143171088
"ENSG00000011465"	"DCN"	6.6738970173	6.6738970173	1.93585577188641	9.9138922623	9.9138922623	0.0890566206907672
"ENSG00000011478"	"QPCTL"	2.18029063405	2.18029063405	0.489312332246917	2.7821610703	2.7821610703	0.305357945426118
"ENSG00000011485"	"PPP5C"	3.9570733256	3.9570733256	0.282400511652453	3.92502138775	3.92502138775	0.404936750103744
"ENSG00000011523"	"CEP68"	1.2906587492	1.2906587492	0.162282379059418	2.491900511	2.491900511	0.11398038463831
"ENSG00000011566"	"MAP4K3"	2.8210486454	2.8210486454	0.531882962384968	3.78316686705	3.78316686705	0.101577515109491
"ENSG00000011590"	"ZBTB32"	0.6969715601	0.6969715601	0.122842914834222	0.14334233165	0.14334233165	0.0468273507353969
"ENSG00000011600"	"TYROBP"	5.87228101275	5.87228101275	0.678236729600075	3.7723032104	3.7723032104	0.35289127970358
"ENSG00000011638"	"TMEM159"	3.7190337478	3.7190337478	0.862167901115298	5.8137900961	5.8137900961	0.327866103774271
"ENSG00000011677"	"GABRA3"	0.12841528845	0.12841528845	0.0987046092711518	0.005319163	0.005319163	0.00752243245507316
"ENSG00000012048"	"BRCA1"	1.78247281555	1.78247281555	1.74949483693841	1.06146410885	1.06146410885	0.124878617628055
"ENSG00000012061"	"ERCC1"	3.75673971895	3.75673971895	0.250373249076922	5.20178709845	5.20178709845	0.149760161926749
"ENSG00000012124"	"CD22"	0.99801466275	0.99801466275	0.499589503521962	0.81652901195	0.81652901195	0.317783630462339
"ENSG00000012171"	"SEMA3B"	1.00158258365	1.00158258365	0.506130041843825	4.04447826525	4.04447826525	0.378883375719346
"ENSG00000012174"	"MBTPS2"	2.21939307455	2.21939307455	0.306146364749526	2.31590805025	2.31590805025	0.0654277868363345
"ENSG00000012211"	"PRICKLE3"	1.0200460021	1.0200460021	0.32985315868222	2.6745597066	2.6745597066	0.114416606306956
"ENSG00000012223"	"LTF"	4.29827315895	4.29827315895	3.0884107248773	6.96703786125	6.96703786125	0.032973451210403
"ENSG00000012232"	"EXTL3"	2.9244182094	2.9244182094	0.980229785007734	2.8520661907	2.8520661907	0.237993273402936
"ENSG00000012504"	"NR1H4"	0.1090526879	0.1090526879	0.15422379024142	0	0	0
"ENSG00000012660"	"ELOVL5"	4.9459859177	4.9459859177	0.100725059064608	7.3505875609	7.3505875609	0.176673482738164
"ENSG00000012779"	"ALOX5"	2.68155927125	2.68155927125	0.556947054289531	2.72743934405	2.72743934405	0.31081824272877
"ENSG00000012822"	"CALCOCO1"	3.039677222	3.039677222	0.504083917427408	5.64033875295	5.64033875295	0.0135906479837092
"ENSG00000012963"	"UBR7"	2.8101370796	2.8101370796	0.386544456328571	3.557538778	3.557538778	0.241956723866948
"ENSG00000012983"	"MAP4K5"	3.36197614835	3.36197614835	0.156507595025883	4.2897926303	4.2897926303	0.0810028792311765
"ENSG00000013016"	"EHD3"	1.66790406845	1.66790406845	0.815680146472583	2.24596521845	2.24596521845	0.00535925202646342
"ENSG00000013275"	"PSMC4"	4.437854162	4.437854162	0.0810216133182373	5.42904999445	5.42904999445	0.000966079336495617
"ENSG00000013288"	"MAN2B2"	1.7770465023	1.7770465023	0.542263363754734	3.46842736425	3.46842736425	0.0567137885210298
"ENSG00000013293"	"SLC7A14"	0.08578084595	0.08578084595	0.121312435734327	0.0170387487	0.0170387487	0.0240964294974069
"ENSG00000013297"	"CLDN11"	0.94766228305	0.94766228305	0.107577197212498	3.4064658872	3.4064658872	1.03896079919814
"ENSG00000013306"	"SLC25A39"	4.1768481865	4.1768481865	0.0541237038284087	5.28317411325	5.28317411325	0.455016505159379
"ENSG00000013364"	"MVP"	4.1837582373	4.1837582373	0.161943709700883	4.87647484075	4.87647484075	0.0378595628867792
"ENSG00000013374"	"NUB1"	4.4160299943	4.4160299943	1.19493671943317	4.9095649329	4.9095649329	0.0500317982252053
"ENSG00000013375"	"PGM3"	3.53910387165	3.53910387165	0.224188776812449	4.93241132135	4.93241132135	0.367371679160107
"ENSG00000013392"	"RWDD2A"	0.93572858925	0.93572858925	0.232669927693136	1.3587453823	1.3587453823	0.09429456140714
"ENSG00000013441"	"CLK1"	3.7644567113	3.7644567113	0.0272107360754104	6.74781043725	6.74781043725	0.428177822085014
"ENSG00000013503"	"POLR3B"	1.5614127586	1.5614127586	0.097530889583996	1.2761317325	1.2761317325	0.300253511702624
"ENSG00000013523"	"ANGEL1"	2.24173120375	2.24173120375	0.022291179450366	2.76827998095	2.76827998095	0.0298322004699244
"ENSG00000013561"	"RNF14"	3.71202060385	3.71202060385	0.377049641643392	3.85129321485	3.85129321485	0.264672538192822
"ENSG00000013563"	"DNASE1L1"	2.49964247175	2.49964247175	0.0219556217859324	3.01300376805	3.01300376805	0.471157818895399
"ENSG00000013573"	"DDX11"	2.9395809865	2.9395809865	0.276064008285194	2.5520761086	2.5520761086	0.145007607942808
"ENSG00000013583"	"HEBP1"	3.12078103105	3.12078103105	0.512970923629576	4.78530516955	4.78530516955	0.203101781472113
"ENSG00000013588"	"GPRC5A"	3.29449152235	3.29449152235	0.995494115427374	6.08606464385	6.08606464385	0.359417961773091
"ENSG00000013619"	"MAMLD1"	0.8744044156	0.8744044156	0.321820691944355	2.8252097947	2.8252097947	0.271258620908908
"ENSG00000013725"	"CD6"	1.4473216795	1.4473216795	0.311143777508134	0.9006720085	0.9006720085	0.425189619445443
"ENSG00000013810"	"TACC3"	1.71937948065	1.71937948065	0.335505937804622	1.7710936309	1.7710936309	0.532059439691253
"ENSG00000014123"	"UFL1"	2.2665404692	2.2665404692	0.273371603332147	2.72452003025	2.72452003025	0.0790119227201421
"ENSG00000014138"	"POLA2"	3.0110335362	3.0110335362	0.171474045965926	1.75108989815	1.75108989815	0.320942965600169
"ENSG00000014164"	"ZC3H3"	2.06352657825	2.06352657825	0.683358461135336	2.95235326665	2.95235326665	0.203214464028865
"ENSG00000014216"	"CAPN1"	4.4613281831	4.4613281831	0.203169213366798	5.5978391148	5.5978391148	0.288524953554612
"ENSG00000014257"	"ACPP"	0.13942951165	0.13942951165	0.197183106370487	0.7065274294	0.7065274294	0.226151072164322
"ENSG00000014641"	"MDH1"	4.10782241995	4.10782241995	0.132447631025182	4.9199812682	4.9199812682	0.340653542589138
"ENSG00000014824"	"SLC30A9"	3.9317340383	3.9317340383	0.91819457948136	3.7809129697	3.7809129697	0.293435124539218
"ENSG00000014914"	"MTMR11"	2.6191400337	2.6191400337	0.593021481276635	2.52843203055	2.52843203055	0.00172043569990736
"ENSG00000014919"	"COX15"	2.0204490551	2.0204490551	0.410909642688529	3.36149262125	3.36149262125	0.156676731290988
"ENSG00000015133"	"CCDC88C"	3.2910731321	3.2910731321	0.173209519069353	2.85370267575	2.85370267575	0.308849252843447
"ENSG00000015153"	"YAF2"	2.7109521128	2.7109521128	0.311082779365919	4.26593387885	4.26593387885	0.573080715574545
"ENSG00000015171"	"ZMYND11"	3.8430256839	3.8430256839	0.883990038747901	4.36120878725	4.36120878725	0.186934091380363
"ENSG00000015285"	"WAS"	1.6929290694	1.6929290694	0.0484194485344181	1.36679119825	1.36679119825	0.0396407139568997
"ENSG00000015413"	"DPEP1"	0.447208646	0.447208646	0.149243922428399	0.0890062045	0.0890062045	0.0425950598995232
"ENSG00000015475"	"BID"	3.5862247341	3.5862247341	0.813232498117273	4.17397579045	4.17397579045	0.779859075774468
"ENSG00000015479"	"MATR3"	5.5077830207	5.5077830207	0.290699199143687	6.8665764443	6.8665764443	0.0371255040942316
"ENSG00000015520"	"NPC1L1"	0.13130183515	0.13130183515	0.105600942512105	0.8341043411	0.8341043411	0.18582865642938
"ENSG00000015532"	"XYLT2"	2.25811037075	2.25811037075	0.190924133160567	2.19448079405	2.19448079405	0.0424540022083035
"ENSG00000015568"	"RGPD5"	0.0110849619	0.0110849619	0.015676503457369	0.0106117154	0.0106117154	0.0150072318387234
"ENSG00000015592"	"STMN4"	0.03694609745	0.03694609745	0.052249672090548	0.30043265745	0.30043265745	0.0120045564203981
"ENSG00000015676"	"NUDCD3"	4.2616366936	4.2616366936	0.169450696398271	4.58928175785	4.58928175785	0.0616474528455977
"ENSG00000016082"	"ISL1"	0	0	0	0.09013385685	0.09013385685	0.104154331579759
"ENSG00000016391"	"CHDH"	2.13354634425	2.13354634425	0.360482281222464	1.9573894323	1.9573894323	0.326927861888249
"ENSG00000016402"	"IL20RA"	0.85614609975	0.85614609975	0.56537939118495	2.1049916835	2.1049916835	0.336499844055698
"ENSG00000016490"	"CLCA1"	0.0074606306	0.0074606306	0.0105509249783757	0	0	0
"ENSG00000016602"	"CLCA4"	0	0	0	0.6580592423	0.6580592423	0.116600099297094
"ENSG00000016864"	"GLT8D1"	3.91416719545	3.91416719545	0.800126262543561	4.2583737252	4.2583737252	0.0499090623070824
"ENSG00000017260"	"ATP2C1"	4.91273877	4.91273877	1.03741355268727	4.89390215445	4.89390215445	0.0596912304803151
"ENSG00000017427"	"IGF1"	0.77339879615	0.77339879615	0.190722986312899	5.04072777285	5.04072777285	0.326668090160857
"ENSG00000017483"	"SLC38A5"	3.4844521182	3.4844521182	0.614363585611537	2.69476048535	2.69476048535	0.0760414794209347
"ENSG00000017797"	"RALBP1"	3.6974881019	3.6974881019	0.269828140355034	4.1596794181	4.1596794181	0.141463718721727
"ENSG00000018189"	"RUFY3"	2.67687390405	2.67687390405	0.288648652057197	4.0747837042	4.0747837042	0.244153471715121
"ENSG00000018236"	"CNTN1"	0.7953892727	0.7953892727	0.243652636467288	3.4795315758	3.4795315758	0.51012108057388
"ENSG00000018280"	"SLC11A1"	2.45024146425	2.45024146425	1.26909735364743	0.4521079792	0.4521079792	0.151129803508145
"ENSG00000018408"	"WWTR1"	4.41661125165	4.41661125165	0.443973009031543	7.2328731005	7.2328731005	0.250905694614169
"ENSG00000018510"	"AGPS"	2.16854717265	2.16854717265	0.222109469359715	1.99060942225	1.99060942225	0.144757609138238
"ENSG00000018607"	"ZNF806"	0.01293630645	0.01293630645	0.0182947000286045	0	0	0
"ENSG00000018610"	"CXorf56"	2.0268015638	2.0268015638	0.223004813269354	2.83760937145	2.83760937145	0.0194396440760108
"ENSG00000018625"	"ATP1A2"	0.38404558515	0.38404558515	0.475910018689554	1.71630529475	1.71630529475	0.0237121013347721
"ENSG00000018699"	"TTC27"	2.9987876929	2.9987876929	0.510444374602565	2.8718321975	2.8718321975	0.0800025462986978
"ENSG00000018869"	"ZNF582"	0.81058866335	0.81058866335	0.104363183062915	0.6943667425	0.6943667425	0.0174235103209252
"ENSG00000019102"	"VSIG2"	0.40367169025	0.40367169025	0.570877979097621	2.84876652695	2.84876652695	0.537951477585457
"ENSG00000019144"	"PHLDB1"	4.44766582455	4.44766582455	0.349661176965536	4.6348211015	4.6348211015	0.0816093548179051
"ENSG00000019169"	"MARCO"	2.35842989285	2.35842989285	1.52878803613794	1.1519176261	1.1519176261	0.708092993762291
"ENSG00000019186"	"CYP24A1"	0.4843436797	0.4843436797	0.0250210407688515	3.66119924785	3.66119924785	3.6413977640397
"ENSG00000019485"	"PRDM11"	1.31259329415	1.31259329415	0.0849584455252894	2.03751172585	2.03751172585	0.203792296275522
"ENSG00000019505"	"SYT13"	1.1185097775	1.1185097775	0.85107897535667	0.39443940825	0.39443940825	0.155370711147255
"ENSG00000019549"	"SNAI2"	2.46795557475	2.46795557475	0.381916284124497	4.92439016385	4.92439016385	0.638351389011665
"ENSG00000019582"	"CD74"	7.5473796492	7.5473796492	0.362242988067773	9.51002880425	9.51002880425	0.0193355777568102
"ENSG00000019991"	"HGF"	0.8042319158	0.8042319158	0.382728188726849	2.98217337865	2.98217337865	0.106134074437904
"ENSG00000019995"	"ZRANB1"	2.1329578452	2.1329578452	0.0621757036839976	3.8184807419	3.8184807419	0.128903265991948
"ENSG00000020129"	"NCDN"	2.4986463044	2.4986463044	0.144353065782679	2.6500031627	2.6500031627	0.00952900195454686
"ENSG00000020181"	"GPR124"	1.6205376178	1.6205376178	0.604358823829832	4.6120159981	4.6120159981	0.274187773697578
"ENSG00000020219"	"CCT8L1P"	0.2098854374	0.2098854374	0.108921824750088	0.01368192855	0.01368192855	0.0193491689148297
"ENSG00000020256"	"ZFP64"	2.2387611421	2.2387611421	0.527844099407006	2.04287786315	2.04287786315	0.170597331632965
"ENSG00000020426"	"MNAT1"	3.9725535899	3.9725535899	0.892530391436736	4.9499256847	4.9499256847	0.274533875314068
"ENSG00000020577"	"SAMD4A"	1.6640716887	1.6640716887	0.329821593152665	4.90172979395	4.90172979395	0.200477611050659
"ENSG00000020633"	"RUNX3"	0.95110441765	0.95110441765	0.487987515649305	3.34744387335	3.34744387335	0.605427490218142
"ENSG00000020922"	"MRE11A"	2.3320209499	2.3320209499	0.0183294753279714	2.6772779335	2.6772779335	0.161123967456257
"ENSG00000021300"	"PLEKHB1"	2.9455100127	2.9455100127	1.10282736009326	3.24523935395	3.24523935395	0.0751020525653678
"ENSG00000021355"	"SERPINB1"	3.1782650042	3.1782650042	0.324688454005125	5.099621047	5.099621047	0.151689212511883
"ENSG00000021461"	"CYP3A43"	0.04102310565	0.04102310565	0.0580154323808943	0	0	0
"ENSG00000021488"	"SLC7A9"	0.39698536765	0.39698536765	0.10455784687277	0.34275100985	0.34275100985	0.0836295062123002
"ENSG00000021574"	"SPAST"	2.7580633304	2.7580633304	0.473680051601197	2.42387890535	2.42387890535	0.146960972818877
"ENSG00000021645"	"NRXN3"	0.70158500355	0.70158500355	0.0670009020002612	1.31546808845	1.31546808845	0.245059746505648
"ENSG00000021762"	"OSBPL5"	2.20720974765	2.20720974765	0.520099772954909	3.56254730275	3.56254730275	0.314101422103892
"ENSG00000021776"	"AQR"	1.9160301736	1.9160301736	0.366971505865876	2.89241767045	2.89241767045	0.273397736938119
"ENSG00000021826"	"CPS1"	1.17553149245	1.17553149245	0.771979292341123	1.5495826989	1.5495826989	0.161102642954214
"ENSG00000021852"	"C8B"	0.0122493464	0.0122493464	0.017323191809086	0.102124207	0.102124207	0.144425438585997
"ENSG00000022267"	"FHL1"	2.27115841995	2.27115841995	0.0221433130986609	5.80645676105	5.80645676105	0.14454289192149
"ENSG00000022277"	"RTFDC1"	4.3211475249	4.3211475249	0.170293417067701	4.86590863295	4.86590863295	0.0461370627718441
"ENSG00000022355"	"GABRA1"	0.1747820083	0.1747820083	0.0978655718502343	0	0	0
"ENSG00000022556"	"NLRP2"	3.3945061655	3.3945061655	0.822404026622653	1.7177120238	1.7177120238	0.414804714936851
"ENSG00000022567"	"SLC45A4"	2.9224070666	2.9224070666	0.384215749485685	2.7453483101	2.7453483101	0.25073545780807
"ENSG00000022840"	"RNF10"	4.733627049	4.733627049	0.250153125109593	6.51339952005	6.51339952005	0.251091201461918
"ENSG00000022976"	"ZNF839"	1.69395900245	1.69395900245	0.485072288338741	2.02104563915	2.02104563915	0.290642517817661
"ENSG00000023041"	"ZDHHC6"	2.4131430822	2.4131430822	0.571454044355144	3.54315995315	3.54315995315	0.204472423680316
"ENSG00000023171"	"GRAMD1B"	1.05244279125	1.05244279125	0.524377852702531	0.98661769715	0.98661769715	0.517154148396614
"ENSG00000023191"	"RNH1"	4.45850183875	4.45850183875	0.845539339117534	5.8693730647	5.8693730647	0.0582131878737286
"ENSG00000023228"	"NDUFS1"	4.02726816755	4.02726816755	0.00554950320716101	4.1166378937	4.1166378937	0.204271182858157
"ENSG00000023287"	"RB1CC1"	2.729266164	2.729266164	0.19129317353317	4.25213562505	4.25213562505	0.0520412474170459
"ENSG00000023318"	"ERP44"	2.3679701596	2.3679701596	0.0189138782936826	3.77081348825	3.77081348825	0.0765045647833042
"ENSG00000023330"	"ALAS1"	3.5509262337	3.5509262337	0.29487286863537	4.41295428895	4.41295428895	0.174430674732082
"ENSG00000023445"	"BIRC3"	2.9192026004	2.9192026004	0.803510861325069	7.4189402745	7.4189402745	0.933207958199332
"ENSG00000023516"	"AKAP11"	2.3541612304	2.3541612304	0.097516167762233	2.4669459004	2.4669459004	0.0570763747057778
"ENSG00000023572"	"GLRX2"	3.5892301682	3.5892301682	0.176083208240584	2.4007726255	2.4007726255	0.230327762981859
"ENSG00000023608"	"SNAPC1"	1.5945811492	1.5945811492	0.521955005410464	2.64206056495	2.64206056495	0.0932018806825917
"ENSG00000023697"	"DERA"	3.43370165235	3.43370165235	0.619208220454738	3.5687406273	3.5687406273	0.301564072744685
"ENSG00000023734"	"STRAP"	4.40110482385	4.40110482385	0.635858140117854	6.27513308135	6.27513308135	0.00975129631543002
"ENSG00000023839"	"ABCC2"	0.3062160071	0.3062160071	0.304490323849967	0.1912210142	0.1912210142	0.0017048046095346
"ENSG00000023892"	"DEF6"	2.45853708065	2.45853708065	0.491480430815322	2.0959089793	2.0959089793	0.0438141785997477
"ENSG00000023902"	"PLEKHO1"	3.28614430195	3.28614430195	0.150293310398848	4.82048906705	4.82048906705	0.0467786479073139
"ENSG00000023909"	"GCLM"	2.56429383035	2.56429383035	0.0760635316772767	3.14146121785	3.14146121785	0.558283134532482
"ENSG00000024048"	"UBR2"	3.04764739395	3.04764739395	0.348728227915192	2.4347222256	2.4347222256	0.0905687716536051
"ENSG00000024422"	"EHD2"	2.2773384926	2.2773384926	0.589484562855625	5.06195027405	5.06195027405	0.270803388038054
"ENSG00000024526"	"DEPDC1"	2.7785371433	2.7785371433	0.130276700564829	0.24654793245	0.24654793245	0.187018734041969
"ENSG00000024862"	"CCDC28A"	2.6510558992	2.6510558992	0.539542284490339	3.17087708865	3.17087708865	0.0746490661020465
"ENSG00000025039"	"RRAGD"	3.0985470908	3.0985470908	1.10613848390411	2.897479851	2.897479851	0.155039549494969
"ENSG00000025156"	"HSF2"	1.8227306179	1.8227306179	0.388028869048018	3.13559512285	3.13559512285	0.154495419442427
"ENSG00000025293"	"PHF20"	3.7718469905	3.7718469905	0.244582404527066	4.07824424635	4.07824424635	0.447961818607469
"ENSG00000025423"	"HSD17B6"	1.6328243164	1.6328243164	0.925423348651729	0.3797977295	0.3797977295	0.0113361362290277
"ENSG00000025434"	"NR1H3"	3.0770832955	3.0770832955	0.147170675446465	3.9379808061	3.9379808061	0.581805517279385
"ENSG00000025708"	"TYMP"	5.57690932665	5.57690932665	0.161728915055943	4.6338633953	4.6338633953	0.656731482507857
"ENSG00000025770"	"NCAPH2"	3.45700602825	3.45700602825	0.585721098099235	3.6848246855	3.6848246855	0.225099248564565
"ENSG00000025772"	"TOMM34"	2.52776066355	2.52776066355	0.370930908214277	4.07330977895	4.07330977895	0.00189677314047182
"ENSG00000025796"	"SEC63"	4.717912617	4.717912617	0.721000876196518	4.8664898456	4.8664898456	0.141017585113066
"ENSG00000025800"	"KPNA6"	3.00399532685	3.00399532685	0.469390891561025	3.73910225225	3.73910225225	0.0470794341614685
"ENSG00000026025"	"VIM"	6.79329033315	6.79329033315	1.30740534435082	9.90342673465	9.90342673465	0.145958024298415
"ENSG00000026036"	"RTEL1-TNFRSF6B"	0.9260256105	0.9260256105	0.470515005869003	1.27559652495	1.27559652495	0.12556152099265
"ENSG00000026103"	"FAS"	2.26264384325	2.26264384325	0.871914277381745	4.34854719225	4.34854719225	0.260207088158951
"ENSG00000026297"	"RNASET2"	4.31509474015	4.31509474015	1.0233007019616	4.0882187927	4.0882187927	0.419091191577499
"ENSG00000026508"	"CD44"	6.1157212336	6.1157212336	0.963913981076904	7.72282785915	7.72282785915	0.515371673905442
"ENSG00000026559"	"KCNG1"	2.6581854882	2.6581854882	0.245611442600749	1.75914296005	1.75914296005	0.321683478227019
"ENSG00000026652"	"AGPAT4"	1.56068419185	1.56068419185	1.336034399592	2.2509381282	2.2509381282	0.158483411249362
"ENSG00000026751"	"SLAMF7"	1.61638663575	1.61638663575	1.00905825079588	1.0548194522	1.0548194522	0.190165697710266
"ENSG00000026950"	"BTN3A1"	4.00879956045	4.00879956045	0.730510567842688	3.833415829	3.833415829	0.292362344840051
"ENSG00000027001"	"MIPEP"	2.3970011391	2.3970011391	0.403109872347273	2.43602651375	2.43602651375	0.308533476208374
"ENSG00000027075"	"PRKCH"	2.9389566774	2.9389566774	0.387521103305201	4.83638674635	4.83638674635	0.30889016123348
"ENSG00000027644"	"INSRR"	0.08389111705	0.08389111705	0.0540085703688434	0.27351135135	0.27351135135	0.0455542879902066
"ENSG00000027697"	"IFNGR1"	4.8575630061	4.8575630061	1.01795855003985	6.1115645631	6.1115645631	0.252810462091777
"ENSG00000027847"	"B4GALT7"	2.64753416635	2.64753416635	0.4351673889107	2.22636103575	2.22636103575	0.2287938049166
"ENSG00000027869"	"SH2D2A"	1.96756886305	1.96756886305	0.587350734570924	1.11945052185	1.11945052185	0.401216139624539
"ENSG00000028116"	"VRK2"	3.1264860671	3.1264860671	0.148772774917353	3.0786911559	3.0786911559	0.137968134369033
"ENSG00000028137"	"TNFRSF1B"	3.6000641981	3.6000641981	0.703196151740512	4.0419065901	4.0419065901	0.141225247525458
"ENSG00000028203"	"VEZT"	3.92744230215	3.92744230215	0.627710942900577	5.12572048865	5.12572048865	0.0299862818659717
"ENSG00000028277"	"POU2F2"	1.02204572255	1.02204572255	0.0820889675992041	0.76040777635	0.76040777635	0.220864955343708
"ENSG00000028310"	"BRD9"	2.0158825985	2.0158825985	0.250480340328222	3.12062796	3.12062796	0.249991068397582
"ENSG00000028528"	"SNX1"	3.5317844177	3.5317844177	0.0969874693959517	5.1932934435	5.1932934435	0.0291411759132367
"ENSG00000028839"	"TBPL1"	3.00025546455	3.00025546455	0.46483192962519	3.9137741395	3.9137741395	0.0970651081648907
"ENSG00000029153"	"ARNTL2"	2.58957509855	2.58957509855	0.462946256151995	2.4751114331	2.4751114331	0.506713983705205
"ENSG00000029363"	"BCLAF1"	4.02682882235	4.02682882235	0.490811289445745	4.7752786762	4.7752786762	0.16607521823358
"ENSG00000029364"	"SLC39A9"	3.5258544354	3.5258544354	0.297265379278757	4.270097596	4.270097596	0.0117429778937579
"ENSG00000029534"	"ANK1"	0.3970320342	0.3970320342	0.514867038877899	1.2850810796	1.2850810796	1.30547241825484
"ENSG00000029559"	"IBSP"	0.6543813518	0.6543813518	0.100006074303711	0	0	0
"ENSG00000029639"	"TFB1M"	2.00540565125	2.00540565125	0.0163702667800411	1.69831700865	1.69831700865	0.0993523059305326
"ENSG00000029725"	"RABEP1"	3.0351213106	3.0351213106	0.567579141762069	3.9901658835	3.9901658835	0.346366064668508
"ENSG00000029993"	"HMGB3"	4.4908365949	4.4908365949	0.735627182965412	3.6388900988	3.6388900988	0.854941968008807
"ENSG00000030066"	"NUP160"	3.91327144915	3.91327144915	0.363620251836006	3.5699283962	3.5699283962	0.0620976635612491
"ENSG00000030110"	"BAK1"	2.6708475195	2.6708475195	0.427330870017894	2.6850210577	2.6850210577	0.186230899637291
"ENSG00000030304"	"MUSK"	0.0647815105	0.0647815105	0.0916148907401151	0.0250544519	0.0250544519	0.0166432824760243
"ENSG00000030419"	"IKZF2"	2.61829705275	2.61829705275	0.0886077079403237	0.9647149561	0.9647149561	0.120690245477204
"ENSG00000030582"	"GRN"	5.610674441	5.610674441	0.0429313854819207	5.7664615311	5.7664615311	0.0888656850307062
"ENSG00000031003"	"FAM13B"	2.2862508138	2.2862508138	0.123622205904059	3.33570862285	3.33570862285	0.0569118013300218
"ENSG00000031081"	"ARHGAP31"	2.41023459005	2.41023459005	0.295032592389978	3.36096933225	3.36096933225	0.425174072076513
"ENSG00000031691"	"CENPQ"	1.8918429119	1.8918429119	0.158473811284858	0.92285517835	0.92285517835	0.0629827582409378
"ENSG00000031698"	"SARS"	4.9353502799	4.9353502799	0.0877782489878642	6.46629801665	6.46629801665	0.0248764359471745
"ENSG00000031823"	"RANBP3"	4.12383848955	4.12383848955	0.494975260685081	4.4721164073	4.4721164073	0.162824850310162
"ENSG00000032219"	"ARID4A"	2.20834325535	2.20834325535	0.246946025969355	2.9147292273	2.9147292273	0.158284297050847
"ENSG00000032389"	"TSSC1"	3.0500885424	3.0500885424	0.372347413580439	2.62525001	2.62525001	0.760795557068877
"ENSG00000032444"	"PNPLA6"	3.4762676574	3.4762676574	0.142772925937145	2.99371166075	2.99371166075	0.18140378294033
"ENSG00000032742"	"IFT88"	1.7803800995	1.7803800995	0.306259459195977	2.25212946895	2.25212946895	0.115950920612611
"ENSG00000033011"	"ALG1"	3.2101834234	3.2101834234	0.410834588112032	2.0847564916	2.0847564916	0.0526985064935605
"ENSG00000033030"	"ZCCHC8"	2.15809357365	2.15809357365	0.232790298480497	3.65104266905	3.65104266905	0.49681295243769
"ENSG00000033050"	"ABCF2"	3.118448287	3.118448287	0.477335571345559	4.5358096379	4.5358096379	0.192723659461056
