chr	pos	strand	coverage	freqC
chr1	10499	-	5.00	0.200
chr1	10500	-	27.00	0.010
chr1	10504	-	27.00	0.013
chr1	10509	-	27.00	1.000
chr1	10511	-	27.00	0.900
chr1	10512	-	27.00	0.870
chr1	10514	-	27.00	1.000
chr1	10519	-	27.00	0.950
chr1	10521	-	12.00	0.876
chr2	10526	-	12.00	0.000
chr2	10533	-	12.00	0.120
chr2	10535	-	21.00	0.290
chr2	10543	-	21.00	0.500
chr2	10550	-	21.00	0.300
chr2	10552	-	21.00	0.183
chr2	10555	-	21.00	0.188
chr2	10557	-	21.00	0.054
chr2	10558	-	21.00	0.295
chr3	10564	-	28.00	1.000
chr3	10567	-	28.00	0.000
chr3	10572	-	28.00	1.000
chr3	10578	-	28.00	1.000
chr3	10580	-	28.00	1.000
chr3	10581	-	28.00	0.000
chr3	10583	-	28.00	0.000
chr3	10590	-	7.00	1.000
chr3	10934	+	7.00	1.000
