ENSG00000XXXXX1:001	0
ENSG00000XXXXX1:002	0
ENSG00000XXXXX2:001	1
ENSG00000XXXXX2:002	1
ENSG00000XXXXX2:003	1
ENSG00000XXXXX3:001	0
ENSG00000XXXXX3:002	1
ENSG00000XXXXX3:003	1
_ambiguous	91
_ambiguous_readpair_position	0
_empty	0
_lowaqual	0
_notaligned	0
