"miRNA"	"TargetGene"	"Correlation"	"Pvalue"	"TargetSource"	"TargetSourceCounts"
"hsa-miR-339-5p"	"ENSG00000108798"	"-0.789509355470527"	"0.0197893941265147"	"targetscan"	"1"
"hsa-miR-375"	"ENSG00000138443"	"-0.749585752935264"	"0.0322533711675756"	"targetscan"	"1"
"hsa-miR-429"	"ENSG00000138443"	"-0.733225592200536"	"0.0384747799941969"	"targetscan"	"1"
