Base	%GC
1	33.33333333333333
2	0.0
3	33.33333333333333
4	33.33333333333333
5	66.66666666666666
6	33.33333333333333
7	33.33333333333333
8	33.33333333333333
9	66.66666666666666
10-14	53.333333333333336
15-19	46.666666666666664
20-24	60.0
25-29	26.666666666666668
30-34	26.666666666666668
35-39	40.0
40-44	40.0
45-49	46.666666666666664
50-54	33.33333333333333
55-59	46.666666666666664
60-64	53.333333333333336
65-69	26.666666666666668
70-74	33.33333333333333
75-76	16.666666666666664
