"ID"	"sample1"	"sample2"
"mir1"	"312975"	"226622"
"mir2"	"693180"	"471479"
"mir3"	"310"	"442"
"mir4"	"517181"	"388008"
"mir5"	"276841"	"139714"
"mir6"	"67829"	"53825"
"mir7"	"24143"	"12376"
"mir8"	"0"	"0"
