Base	G	A	T	C
1	0.0	0.0	66.66666666666666	33.33333333333333
2	0.0	0.0	100.0	0.0
3	0.0	0.0	66.66666666666666	33.33333333333333
4	33.33333333333333	33.33333333333333	33.33333333333333	0.0
5	33.33333333333333	33.33333333333333	0.0	33.33333333333333
6	0.0	33.33333333333333	33.33333333333333	33.33333333333333
7	33.33333333333333	33.33333333333333	33.33333333333333	0.0
8	33.33333333333333	33.33333333333333	33.33333333333333	0.0
9	33.33333333333333	33.33333333333333	0.0	33.33333333333333
10-14	20.0	13.333333333333334	33.33333333333333	33.33333333333333
15-19	13.333333333333334	26.666666666666668	26.666666666666668	33.33333333333333
20-24	26.666666666666668	26.666666666666668	13.333333333333334	33.33333333333333
25-29	13.333333333333334	40.0	33.33333333333333	13.333333333333334
30-34	13.333333333333334	60.0	13.333333333333334	13.333333333333334
35-39	33.33333333333333	46.666666666666664	13.333333333333334	6.666666666666667
40-44	20.0	40.0	20.0	20.0
45-49	13.333333333333334	40.0	13.333333333333334	33.33333333333333
50-54	13.333333333333334	40.0	26.666666666666668	20.0
55-59	40.0	53.333333333333336	0.0	6.666666666666667
60-64	26.666666666666668	13.333333333333334	33.33333333333333	26.666666666666668
65-69	13.333333333333334	53.333333333333336	20.0	13.333333333333334
70-74	13.333333333333334	40.0	26.666666666666668	20.0
75-76	16.666666666666664	66.66666666666666	16.666666666666664	0.0
