Sequence	Count	Percentage	Possible Source
TTTGCAGAATCCTGCCAAACAAAGGAACTGAATAGGCTGTGGGCAAAGCA	1	33.33333333333333	No Hit
TTTTACAGCACATGCATGTTAGGCAAGTATCAAAAAAAAAAAAATCACAA	1	33.33333333333333	No Hit
CTCAGTTTGCTCGTGCTCTGCCCTTTATCAACAGGAATGTCACTTCCAGC	1	33.33333333333333	No Hit
