Base	Mean	Median	Lower Quartile	Upper Quartile	10th Percentile	90th Percentile
1	37.666666666666664	0.0	0.0	0.0	0.0	0.0
2	34.333333333333336	0.0	0.0	0.0	0.0	0.0
3	31.0	0.0	0.0	0.0	0.0	0.0
4	37.333333333333336	0.0	0.0	0.0	0.0	0.0
5	36.333333333333336	0.0	0.0	0.0	0.0	0.0
6	35.666666666666664	0.0	0.0	0.0	0.0	0.0
7	36.0	0.0	0.0	0.0	0.0	0.0
8	37.333333333333336	0.0	0.0	0.0	0.0	0.0
9	33.666666666666664	0.0	0.0	0.0	0.0	0.0
10-14	35.53333333333333	0.0	0.0	0.0	0.0	0.0
15-19	35.266666666666666	0.0	0.0	0.0	0.0	0.0
20-24	37.2	0.0	0.0	0.0	0.0	0.0
25-29	34.13333333333333	0.0	0.0	0.0	0.0	0.0
30-34	33.53333333333333	0.0	0.0	0.0	0.0	0.0
35-39	35.13333333333334	0.0	0.0	0.0	0.0	0.0
40-44	35.0	0.0	0.0	0.0	0.0	0.0
45-49	34.86666666666666	0.0	0.0	0.0	0.0	0.0
50-54	31.4	0.0	0.0	0.0	0.0	0.0
55-59	28.333333333333336	0.0	0.0	0.0	0.0	0.0
60-64	29.0	0.0	0.0	0.0	0.0	0.0
65-69	29.4	0.0	0.0	0.0	0.0	0.0
70-74	21.8	0.0	0.0	0.0	0.0	0.0
75-76	14.166666666666668	0.0	0.0	0.0	0.0	0.0
