"ID"	"miRB14"	"mirna_name"	"entrezID"	"gene_name"	"Support_Type"	"Experiments"	"References__PMID_"
"MIMAT0000091"	"hsa-miR-33a"	"hsa-miR-33a-5p"	19	"ABCA1"	"Functional MTI"	"Luciferase reporter assay"	20466885
"MIMAT0000091"	"hsa-miR-33a"	"hsa-miR-33a-5p"	19	"ABCA1"	"Functional MTI"	"Luciferase reporter assay"	20466882
"MIMAT0000091"	"hsa-miR-33a"	"hsa-miR-33a-5p"	19	"ABCA1"	"Functional MTI"	"Luciferase reporter assay"	20566875
"MIMAT0000091"	"hsa-miR-33a"	"hsa-miR-33a-5p"	4802	"NFYC"	"Functional MTI"	"Immunofluorescence//Luciferase reporter assay//Western blot"	23547260
"MIMAT0000091"	"hsa-miR-33a"	"hsa-miR-33a-5p"	4864	"NPC1"	"Functional MTI"	"Immunofluorescence//Luciferase reporter assay//Western blot"	23547260
"MIMAT0000091"	"hsa-miR-33a"	"hsa-miR-33a-5p"	4864	"NPC1"	"Functional MTI"	"Luciferase reporter assay"	20466885
"MIMAT0000091"	"hsa-miR-33a"	"hsa-miR-33a-5p"	5292	"PIM1"	"Functional MTI"	"Reporter assay"	21743487
"MIMAT0000091"	"hsa-miR-33a"	"hsa-miR-33a-5p"	5744	"PTHLH"	"Functional MTI"	"Luciferase reporter assay"	23453925
"MIMAT0000091"	"hsa-miR-33a"	"hsa-miR-33a-5p"	6714	"SRC"	"Functional MTI"	"Immunofluorescence//Luciferase reporter assay//Western blot"	23547260
"MIMAT0000091"	"hsa-miR-33a"	"hsa-miR-33a-5p"	8202	"NCOA3"	"Functional MTI"	"Immunofluorescence//Luciferase reporter assay//Western blot"	23547260
"MIMAT0000091"	"hsa-miR-33a"	"hsa-miR-33a-5p"	8647	"ABCB11"	"Functional MTI"	"Luciferase reporter assay//qRT-PCR"	22767443
"MIMAT0000091"	"hsa-miR-33a"	"hsa-miR-33a-5p"	8660	"IRS2"	"Functional MTI"	"Immunofluorescence//Luciferase reporter assay//Western blot"	23547260
"MIMAT0000091"	"hsa-miR-33a"	"hsa-miR-33a-5p"	54677	"CROT"	"Functional MTI"	"Immunofluorescence//Luciferase reporter assay//Western blot"	23547260
