chr	pos	strand	context	ratio	eff_CT_count	C_count	CT_count
chr1	10951	+	GACAC	1.000	12.00	12	12
chr1	10953	+	CACAT	0.100	17.00	0	17
chr1	10957	+	TGCTA	0.345	17.00	0	17
chr1	10966	+	GTCCA	0.499	17.00	0	17
