UNC13-SN749_82:4:2202:21070:199050#0/1 50 0 50 0
UNC13-SN749_82:4:2202:21070:199050#0/2 50 0 50 0
UNC13-SN749_82:4:1106:14494:97207#0/1 50 0 50 0
UNC13-SN749_82:4:1106:14494:97207#0/2 50 0 50 0
UNC13-SN749_82:4:1106:14650:151324#0/1 50 0 50 0
UNC13-SN749_82:4:1106:14650:151324#0/2 50 0 50 0
UNC13-SN749_82:4:1106:15111:94573#0/1 50 0 50 0
UNC13-SN749_82:4:1106:15111:94573#0/2 50 0 50 0
UNC13-SN749_82:4:1106:14004:151585#0/1 50 0 50 0
UNC13-SN749_82:4:1106:14004:151585#0/2 50 0 50 0
UNC13-SN749_82:4:2103:12943:168991#0/1 50 0 50 0
UNC13-SN749_82:4:2103:12943:168991#0/2 50 0 50 0
UNC13-SN749_82:4:2103:4701:157552#0/1 50 0 50 0
UNC13-SN749_82:4:2103:4701:157552#0/2 50 0 50 0
UNC13-SN749_82:4:1201:11999:177114#0/1 50 0 50 0
UNC13-SN749_82:4:1201:11999:177114#0/2 50 0 50 0
UNC13-SN749_82:4:1108:11669:144919#0/1 50 0 50 0
UNC13-SN749_82:4:1108:11669:144919#0/2 50 0 50 0
UNC13-SN749_82:4:2201:4871:34734#0/1 50 0 50 0
UNC13-SN749_82:4:2201:4871:34734#0/2 50 0 50 0
UNC13-SN749_82:4:2101:4494:151441#0/1 50 0 50 0
UNC13-SN749_82:4:2101:4494:151441#0/2 50 0 50 0
UNC13-SN749_82:4:1108:11875:62910#0/1 50 0 50 0
UNC13-SN749_82:4:1108:11875:62910#0/2 50 0 50 0
UNC13-SN749_82:4:1108:12223:51755#0/1 50 0 50 0
UNC13-SN749_82:4:1108:12223:51755#0/2 50 0 50 0
UNC13-SN749_82:4:1103:14797:160429#0/1 50 0 50 0
UNC13-SN749_82:4:1103:14797:160429#0/2 50 0 50 0
UNC13-SN749_82:4:1104:7165:111474#0/1 50 0 50 0
UNC13-SN749_82:4:1104:7165:111474#0/2 50 0 50 0
UNC13-SN749_82:4:1106:10232:22331#0/1 50 0 50 0
UNC13-SN749_82:4:1106:10232:22331#0/2 50 0 50 0
UNC13-SN749_82:4:2203:16338:8664#0/1 50 0 50 0
UNC13-SN749_82:4:2203:16338:8664#0/2 50 0 50 0
UNC13-SN749_82:4:1102:2718:91370#0/1 49 0 49 1
UNC13-SN749_82:4:1102:2718:91370#0/2 50 0 50 0
UNC13-SN749_82:4:1104:5064:188770#0/1 49 0 49 1
UNC13-SN749_82:4:1104:5064:188770#0/2 50 0 50 0
UNC13-SN749_82:4:1205:5593:172893#0/1 40 0 40 10
UNC13-SN749_82:4:1205:5593:172893#0/2 50 0 50 0
UNC13-SN749_82:4:2103:7513:108889#0/1 50 0 50 0
UNC13-SN749_82:4:2103:7513:108889#0/2 50 0 50 0
UNC13-SN749_82:4:1205:5843:90396#0/1 50 0 50 0
UNC13-SN749_82:4:1205:5843:90396#0/2 50 0 50 0
UNC13-SN749_82:4:2206:9761:45091#0/1 50 0 50 0
UNC13-SN749_82:4:2206:9761:45091#0/2 0 0 0 0
UNC13-SN749_82:4:1202:5567:126928#0/1 50 0 50 0
UNC13-SN749_82:4:1202:5567:126928#0/2 50 0 50 0
UNC13-SN749_82:4:1207:6075:108562#0/1 50 0 50 0
UNC13-SN749_82:4:1207:6075:108562#0/2 50 0 50 0
UNC13-SN749_82:4:2106:5047:56701#0/1 50 0 50 0
UNC13-SN749_82:4:2106:5047:56701#0/2 50 0 50 0
UNC13-SN749_82:4:1101:3858:194315#0/1 48 0 48 2
UNC13-SN749_82:4:1101:3858:194315#0/2 50 0 50 0
UNC13-SN749_82:4:1104:5785:96697#0/1 50 0 50 0
UNC13-SN749_82:4:1104:5785:96697#0/2 50 0 50 0
UNC13-SN749_82:4:1206:4683:198834#0/1 50 0 50 0
UNC13-SN749_82:4:1206:4683:198834#0/2 50 0 50 0
UNC13-SN749_82:4:1204:13248:192403#0/1 50 0 50 0
UNC13-SN749_82:4:1204:13248:192403#0/2 50 0 50 0
UNC13-SN749_82:4:2105:9462:105396#0/1 50 0 50 0
UNC13-SN749_82:4:2105:9462:105396#0/2 50 0 50 0
UNC13-SN749_82:4:1108:3621:88492#0/1 50 0 50 0
UNC13-SN749_82:4:1108:3621:88492#0/2 50 0 50 0
UNC13-SN749_82:4:2108:8005:80594#0/1 50 0 50 0
UNC13-SN749_82:4:2108:8005:80594#0/2 50 0 50 0
UNC13-SN749_82:4:1208:7398:27938#0/1 50 0 50 0
UNC13-SN749_82:4:1208:7398:27938#0/2 50 0 50 0
UNC13-SN749_82:4:2107:17788:148788#0/1 49 0 49 1
UNC13-SN749_82:4:2107:17788:148788#0/2 50 0 50 0
UNC13-SN749_82:4:2208:3294:66030#0/1 50 0 50 0
UNC13-SN749_82:4:2208:3294:66030#0/2 50 0 50 0
UNC13-SN749_82:4:1202:5749:69596#0/1 50 0 50 0
UNC13-SN749_82:4:1202:5749:69596#0/2 50 0 50 0
UNC13-SN749_82:4:1107:3674:193235#0/1 0 0 0 0
UNC13-SN749_82:4:1107:3674:193235#0/2 47 0 47 3
UNC13-SN749_82:4:1105:20454:160584#0/1 34 0 34 16
UNC13-SN749_82:4:1105:20454:160584#0/2 50 0 50 0
UNC13-SN749_82:4:1202:19154:82921#0/1 43 0 43 7
UNC13-SN749_82:4:1202:19154:82921#0/2 0 0 0 0
UNC13-SN749_82:4:1101:5842:80152#0/1 50 0 50 0
UNC13-SN749_82:4:1101:5842:80152#0/2 50 0 50 0
UNC13-SN749_82:4:2205:18948:162545#0/1 50 0 50 0
UNC13-SN749_82:4:2205:18948:162545#0/2 50 0 50 0
UNC13-SN749_82:4:1203:14637:2173#0/1 36 0 36 14
UNC13-SN749_82:4:1203:14637:2173#0/2 50 0 50 0
UNC13-SN749_82:4:2201:9479:82510#0/1 50 0 50 0
UNC13-SN749_82:4:2201:9479:82510#0/2 49 1 50 0
UNC13-SN749_82:4:1103:18347:6898#0/1 49 0 49 1
UNC13-SN749_82:4:1103:18347:6898#0/2 44 0 44 6
UNC13-SN749_82:4:2102:19272:143489#0/1 50 0 50 0
UNC13-SN749_82:4:2102:19272:143489#0/2 38 0 38 12
UNC13-SN749_82:4:2103:15764:35824#0/1 50 0 50 0
UNC13-SN749_82:4:2103:15764:35824#0/2 50 0 50 0
UNC13-SN749_82:4:2208:14370:44015#0/1 50 0 50 0
UNC13-SN749_82:4:2208:14370:44015#0/2 48 0 48 2
UNC13-SN749_82:4:1203:16924:174563#0/1 50 0 50 0
UNC13-SN749_82:4:1203:16924:174563#0/2 50 0 50 0
UNC13-SN749_82:4:2101:17877:97739#0/1 50 0 50 0
UNC13-SN749_82:4:2101:17877:97739#0/2 50 0 50 0
UNC13-SN749_82:4:2102:11406:50000#0/1 45 0 45 5
UNC13-SN749_82:4:2102:11406:50000#0/2 50 0 50 0
UNC13-SN749_82:4:2205:12358:171946#0/1 50 0 50 0
UNC13-SN749_82:4:2205:12358:171946#0/2 45 0 45 5
UNC13-SN749_82:4:1208:9277:127565#0/1 50 0 50 0
UNC13-SN749_82:4:1208:9277:127565#0/2 49 1 50 0
UNC13-SN749_82:4:1102:17815:30513#0/1 50 0 50 0
UNC13-SN749_82:4:1102:17815:30513#0/2 49 0 49 1
UNC13-SN749_82:4:2202:14729:49828#0/1 50 0 50 0
UNC13-SN749_82:4:2202:14729:49828#0/2 0 0 0 0
UNC13-SN749_82:4:1108:18827:21591#0/1 50 0 50 0
UNC13-SN749_82:4:1108:18827:21591#0/2 50 0 50 0
UNC13-SN749_82:4:1203:5474:11743#0/1 50 0 50 0
UNC13-SN749_82:4:1203:5474:11743#0/2 50 0 50 0
UNC13-SN749_82:4:2101:18277:53408#0/1 50 0 50 0
UNC13-SN749_82:4:2101:18277:53408#0/2 49 0 49 1
UNC13-SN749_82:4:2103:4499:121513#0/1 50 0 50 0
UNC13-SN749_82:4:2103:4499:121513#0/2 50 0 50 0
UNC13-SN749_82:4:1102:11064:104678#0/1 50 0 50 0
UNC13-SN749_82:4:1102:11064:104678#0/2 50 0 50 0
UNC13-SN749_82:4:1103:5041:118532#0/1 50 0 50 0
UNC13-SN749_82:4:1103:5041:118532#0/2 50 0 50 0
UNC13-SN749_82:4:1205:15103:147306#0/1 50 0 50 0
UNC13-SN749_82:4:1205:15103:147306#0/2 50 0 50 0
UNC13-SN749_82:4:2101:6800:161974#0/1 50 0 50 0
UNC13-SN749_82:4:2101:6800:161974#0/2 50 0 50 0
UNC13-SN749_82:4:1201:5162:91232#0/1 50 0 50 0
UNC13-SN749_82:4:1201:5162:91232#0/2 50 0 50 0
UNC13-SN749_82:4:2108:10931:151585#0/1 50 0 50 0
UNC13-SN749_82:4:2108:10931:151585#0/2 50 0 50 0
UNC13-SN749_82:4:2203:2416:91354#0/1 50 0 50 0
UNC13-SN749_82:4:2203:2416:91354#0/2 50 0 50 0
UNC13-SN749_82:4:1104:11835:73033#0/1 50 0 50 0
UNC13-SN749_82:4:1104:11835:73033#0/2 50 0 50 0
UNC13-SN749_82:4:2203:2275:84935#0/1 42 0 42 8
UNC13-SN749_82:4:2203:2275:84935#0/2 47 1 48 2
UNC13-SN749_82:4:2204:17659:167335#0/1 50 0 50 0
UNC13-SN749_82:4:2204:17659:167335#0/2 50 0 50 0
UNC13-SN749_82:4:2205:18279:82954#0/1 50 0 50 0
UNC13-SN749_82:4:2205:18279:82954#0/2 50 0 50 0
UNC13-SN749_82:4:2205:4994:63429#0/1 50 0 50 0
UNC13-SN749_82:4:2205:4994:63429#0/2 50 0 50 0
UNC13-SN749_82:4:2102:12789:17430#0/1 50 0 50 0
UNC13-SN749_82:4:2102:12789:17430#0/2 50 0 50 0
UNC13-SN749_82:4:2104:18803:104840#0/1 50 0 50 0
UNC13-SN749_82:4:2104:18803:104840#0/2 50 0 50 0
UNC13-SN749_82:4:2207:12197:121815#0/1 50 0 50 0
UNC13-SN749_82:4:2207:12197:121815#0/2 50 0 50 0
UNC13-SN749_82:4:1208:3693:191979#0/1 50 0 50 0
UNC13-SN749_82:4:1208:3693:191979#0/2 50 0 50 0
UNC13-SN749_82:4:2103:19840:117628#0/1 50 0 50 0
UNC13-SN749_82:4:2103:19840:117628#0/2 50 0 50 0
UNC13-SN749_82:4:2106:8548:46120#0/1 50 0 50 0
UNC13-SN749_82:4:2106:8548:46120#0/2 50 0 50 0
UNC13-SN749_82:4:2106:9889:55735#0/1 50 0 50 0
UNC13-SN749_82:4:2106:9889:55735#0/2 50 0 50 0
UNC13-SN749_82:4:2208:4666:193026#0/1 50 0 50 0
UNC13-SN749_82:4:2208:4666:193026#0/2 50 0 50 0
UNC13-SN749_82:4:1206:13864:73425#0/1 50 0 50 0
UNC13-SN749_82:4:1206:13864:73425#0/2 50 0 50 0
UNC13-SN749_82:4:2101:6572:128778#0/1 50 0 50 0
UNC13-SN749_82:4:2101:6572:128778#0/2 50 0 50 0
UNC13-SN749_82:4:1101:2228:99527#0/1 50 0 50 0
UNC13-SN749_82:4:1101:2228:99527#0/2 50 0 50 0
UNC13-SN749_82:4:1201:17712:129630#0/1 50 0 50 0
UNC13-SN749_82:4:1201:17712:129630#0/2 50 0 50 0
UNC13-SN749_82:4:1101:20430:151276#0/1 0 0 0 0
UNC13-SN749_82:4:1101:20430:151276#0/2 50 0 50 0
UNC13-SN749_82:4:1102:19102:70878#0/1 50 0 50 0
UNC13-SN749_82:4:1102:19102:70878#0/2 50 0 50 0
UNC13-SN749_82:4:1206:20901:16520#0/1 50 0 50 0
UNC13-SN749_82:4:1206:20901:16520#0/2 50 0 50 0
UNC13-SN749_82:4:2102:10277:96923#0/1 50 0 50 0
UNC13-SN749_82:4:2102:10277:96923#0/2 50 0 50 0
UNC13-SN749_82:4:2103:10361:149147#0/1 50 0 50 0
UNC13-SN749_82:4:2103:10361:149147#0/2 50 0 50 0
UNC13-SN749_82:4:1203:4780:151359#0/1 50 0 50 0
UNC13-SN749_82:4:1203:4780:151359#0/2 50 0 50 0
UNC13-SN749_82:4:2208:2436:14363#0/1 50 0 50 0
UNC13-SN749_82:4:2208:2436:14363#0/2 50 0 50 0
UNC13-SN749_82:4:1107:13198:186395#0/1 50 0 50 0
UNC13-SN749_82:4:1107:13198:186395#0/2 50 0 50 0
UNC13-SN749_82:4:2106:5036:52436#0/1 50 0 50 0
UNC13-SN749_82:4:2106:5036:52436#0/2 45 0 45 5
UNC13-SN749_82:4:2206:10431:25434#0/1 50 0 50 0
UNC13-SN749_82:4:2206:10431:25434#0/2 50 0 50 0
UNC13-SN749_82:4:2201:3845:56133#0/1 50 0 50 0
UNC13-SN749_82:4:2201:3845:56133#0/2 50 0 50 0
UNC13-SN749_82:4:1204:10487:87046#0/1 50 0 50 0
UNC13-SN749_82:4:1204:10487:87046#0/2 50 0 50 0
UNC13-SN749_82:4:1106:3909:172545#0/1 50 0 50 0
UNC13-SN749_82:4:1106:3909:172545#0/2 50 0 50 0
UNC13-SN749_82:4:2105:4904:116717#0/1 50 0 50 0
UNC13-SN749_82:4:2105:4904:116717#0/2 50 0 50 0
UNC13-SN749_82:4:1101:14924:145343#0/1 50 0 50 0
UNC13-SN749_82:4:1101:14924:145343#0/2 49 0 49 1
UNC13-SN749_82:4:1207:13068:178991#0/1 50 0 50 0
UNC13-SN749_82:4:1207:13068:178991#0/2 49 1 50 0
UNC13-SN749_82:4:2107:18297:77609#0/1 50 0 50 0
UNC13-SN749_82:4:2107:18297:77609#0/2 50 0 50 0
UNC13-SN749_82:4:2202:17869:69959#0/1 50 0 50 0
UNC13-SN749_82:4:2202:17869:69959#0/2 49 0 49 1
UNC13-SN749_82:4:1105:12581:43649#0/1 50 0 50 0
UNC13-SN749_82:4:1105:12581:43649#0/2 50 0 50 0
UNC13-SN749_82:4:1105:3992:22811#0/1 50 0 50 0
UNC13-SN749_82:4:1105:3992:22811#0/2 50 0 50 0
UNC13-SN749_82:4:1108:11322:147824#0/1 50 0 50 0
UNC13-SN749_82:4:1108:11322:147824#0/2 50 0 50 0
UNC13-SN749_82:4:1201:19047:19231#0/1 50 0 50 0
UNC13-SN749_82:4:1201:19047:19231#0/2 50 0 50 0
UNC13-SN749_82:4:1202:1473:165832#0/1 50 0 50 0
UNC13-SN749_82:4:1202:1473:165832#0/2 50 0 50 0
UNC13-SN749_82:4:2104:20734:81994#0/1 50 0 50 0
UNC13-SN749_82:4:2104:20734:81994#0/2 50 0 50 0
UNC13-SN749_82:4:2106:12673:57165#0/1 50 0 50 0
UNC13-SN749_82:4:2106:12673:57165#0/2 50 0 50 0
UNC13-SN749_82:4:2106:6017:32323#0/1 50 0 50 0
UNC13-SN749_82:4:2106:6017:32323#0/2 50 0 50 0
UNC13-SN749_82:4:2208:17388:117751#0/1 50 0 50 0
UNC13-SN749_82:4:2208:17388:117751#0/2 50 0 50 0
UNC13-SN749_82:4:1105:1771:59091#0/1 49 0 49 1
UNC13-SN749_82:4:1105:1771:59091#0/2 50 0 50 0
UNC13-SN749_82:4:1202:16160:189737#0/1 50 0 50 0
UNC13-SN749_82:4:1202:16160:189737#0/2 50 0 50 0
UNC13-SN749_82:4:1205:10981:85014#0/1 50 0 50 0
UNC13-SN749_82:4:1205:10981:85014#0/2 50 0 50 0
UNC13-SN749_82:4:1205:8655:34904#0/1 50 0 50 0
UNC13-SN749_82:4:1205:8655:34904#0/2 50 0 50 0
UNC13-SN749_82:4:2107:9982:161281#0/1 48 1 49 1
UNC13-SN749_82:4:2107:9982:161281#0/2 48 0 48 2
UNC13-SN749_82:4:2108:19620:85558#0/1 50 0 50 0
UNC13-SN749_82:4:2108:19620:85558#0/2 50 0 50 0
UNC13-SN749_82:4:2201:18356:132072#0/1 50 0 50 0
UNC13-SN749_82:4:2201:18356:132072#0/2 50 0 50 0
UNC13-SN749_82:4:2204:5560:132002#0/1 50 0 50 0
UNC13-SN749_82:4:2204:5560:132002#0/2 50 0 50 0
UNC13-SN749_82:4:2201:6204:177327#0/1 50 0 50 0
UNC13-SN749_82:4:2201:6204:177327#0/2 50 0 50 0
UNC13-SN749_82:4:1102:2821:66243#0/1 50 0 50 0
UNC13-SN749_82:4:1102:2821:66243#0/2 50 0 50 0
UNC13-SN749_82:4:2207:3575:90251#0/1 50 0 50 0
UNC13-SN749_82:4:2207:3575:90251#0/2 50 0 50 0
UNC13-SN749_82:4:1103:3051:50677#0/1 50 0 50 0
UNC13-SN749_82:4:1103:3051:50677#0/2 50 0 50 0
UNC13-SN749_82:4:1205:19168:27142#0/1 50 0 50 0
UNC13-SN749_82:4:1205:19168:27142#0/2 50 0 50 0
UNC13-SN749_82:4:2203:11903:189183#0/1 50 0 50 0
UNC13-SN749_82:4:2203:11903:189183#0/2 50 0 50 0
UNC13-SN749_82:4:2208:16114:74988#0/1 50 0 50 0
UNC13-SN749_82:4:2208:16114:74988#0/2 49 1 50 0
UNC13-SN749_82:4:2201:3303:8591#0/1 50 0 50 0
UNC13-SN749_82:4:2201:3303:8591#0/2 50 0 50 0
UNC13-SN749_82:4:1103:8990:104594#0/1 48 0 48 2
UNC13-SN749_82:4:1103:8990:104594#0/2 50 0 50 0
UNC13-SN749_82:4:2108:16721:159200#0/1 50 0 50 0
UNC13-SN749_82:4:2108:16721:159200#0/2 50 0 50 0
UNC13-SN749_82:4:1207:12212:117647#0/1 50 0 50 0
UNC13-SN749_82:4:1207:12212:117647#0/2 50 0 50 0
UNC13-SN749_82:4:2201:14513:136235#0/1 50 0 50 0
UNC13-SN749_82:4:2201:14513:136235#0/2 50 0 50 0
UNC13-SN749_82:4:2201:9246:66170#0/1 50 0 50 0
UNC13-SN749_82:4:2201:9246:66170#0/2 50 0 50 0
UNC13-SN749_82:4:2206:10595:25439#0/1 50 0 50 0
UNC13-SN749_82:4:2206:10595:25439#0/2 50 0 50 0
UNC13-SN749_82:4:2208:10476:148869#0/1 50 0 50 0
UNC13-SN749_82:4:2208:10476:148869#0/2 49 0 49 1
UNC13-SN749_82:4:2108:5739:38373#0/1 50 0 50 0
UNC13-SN749_82:4:2108:5739:38373#0/2 50 0 50 0
UNC13-SN749_82:4:1202:13923:63079#0/1 50 0 50 0
UNC13-SN749_82:4:1202:13923:63079#0/2 50 0 50 0
UNC13-SN749_82:4:2101:6599:145337#0/1 50 0 50 0
UNC13-SN749_82:4:2101:6599:145337#0/2 50 0 50 0
UNC13-SN749_82:4:1105:6615:138103#0/1 50 0 50 0
UNC13-SN749_82:4:1105:6615:138103#0/2 50 0 50 0
UNC13-SN749_82:4:2108:16805:173358#0/1 50 0 50 0
UNC13-SN749_82:4:2108:16805:173358#0/2 50 0 50 0
UNC13-SN749_82:4:2201:4365:151112#0/1 50 0 50 0
UNC13-SN749_82:4:2201:4365:151112#0/2 50 0 50 0
UNC13-SN749_82:4:2202:11879:160503#0/1 50 0 50 0
UNC13-SN749_82:4:2202:11879:160503#0/2 50 0 50 0
UNC13-SN749_82:4:1105:13900:68884#0/1 50 0 50 0
UNC13-SN749_82:4:1105:13900:68884#0/2 50 0 50 0
UNC13-SN749_82:4:2208:14533:115974#0/1 50 0 50 0
UNC13-SN749_82:4:2208:14533:115974#0/2 50 0 50 0
UNC13-SN749_82:4:1105:12400:156849#0/1 50 0 50 0
UNC13-SN749_82:4:1105:12400:156849#0/2 50 0 50 0
UNC13-SN749_82:4:1202:8609:117403#0/1 50 0 50 0
UNC13-SN749_82:4:1202:8609:117403#0/2 50 0 50 0
UNC13-SN749_82:4:2108:5753:37999#0/1 50 0 50 0
UNC13-SN749_82:4:2108:5753:37999#0/2 50 0 50 0
UNC13-SN749_82:4:1104:20528:130541#0/1 50 0 50 0
UNC13-SN749_82:4:1104:20528:130541#0/2 50 0 50 0
UNC13-SN749_82:4:1106:9032:138181#0/1 50 0 50 0
UNC13-SN749_82:4:1106:9032:138181#0/2 50 0 50 0
UNC13-SN749_82:4:1205:19361:49510#0/1 49 1 50 0
UNC13-SN749_82:4:1205:19361:49510#0/2 49 0 49 1
UNC13-SN749_82:4:2202:15953:95691#0/1 50 0 50 0
UNC13-SN749_82:4:2202:15953:95691#0/2 50 0 50 0
UNC13-SN749_82:4:2202:8231:89907#0/1 50 0 50 0
UNC13-SN749_82:4:2202:8231:89907#0/2 50 0 50 0
UNC13-SN749_82:4:2203:20522:15089#0/1 50 0 50 0
UNC13-SN749_82:4:2203:20522:15089#0/2 49 1 50 0
UNC13-SN749_82:4:2101:18655:62780#0/1 50 0 50 0
UNC13-SN749_82:4:2101:18655:62780#0/2 50 0 50 0
UNC13-SN749_82:4:2208:17016:119901#0/1 50 0 50 0
UNC13-SN749_82:4:2208:17016:119901#0/2 50 0 50 0
UNC13-SN749_82:4:1203:20394:73589#0/1 50 0 50 0
UNC13-SN749_82:4:1203:20394:73589#0/2 50 0 50 0
UNC13-SN749_82:4:1205:7774:41231#0/1 50 0 50 0
UNC13-SN749_82:4:1205:7774:41231#0/2 50 0 50 0
UNC13-SN749_82:4:1207:19178:4088#0/1 50 0 50 0
UNC13-SN749_82:4:1207:19178:4088#0/2 50 0 50 0
UNC13-SN749_82:4:2107:2789:31912#0/1 50 0 50 0
UNC13-SN749_82:4:2107:2789:31912#0/2 43 0 43 7
UNC13-SN749_82:4:2202:6070:135767#0/1 50 0 50 0
UNC13-SN749_82:4:2202:6070:135767#0/2 50 0 50 0
UNC13-SN749_82:4:1101:8359:178287#0/1 50 0 50 0
UNC13-SN749_82:4:1101:8359:178287#0/2 50 0 50 0
UNC13-SN749_82:4:1102:7026:35399#0/1 50 0 50 0
UNC13-SN749_82:4:1102:7026:35399#0/2 50 0 50 0
UNC13-SN749_82:4:1105:3982:36020#0/1 50 0 50 0
UNC13-SN749_82:4:1105:3982:36020#0/2 50 0 50 0
UNC13-SN749_82:4:1201:1840:47077#0/1 50 0 50 0
UNC13-SN749_82:4:1201:1840:47077#0/2 50 0 50 0
UNC13-SN749_82:4:1204:8452:178920#0/1 50 0 50 0
UNC13-SN749_82:4:1204:8452:178920#0/2 50 0 50 0
UNC13-SN749_82:4:1205:17145:36253#0/1 50 0 50 0
UNC13-SN749_82:4:1205:17145:36253#0/2 50 0 50 0
UNC13-SN749_82:4:2203:21039:87376#0/1 50 0 50 0
UNC13-SN749_82:4:2203:21039:87376#0/2 50 0 50 0
UNC13-SN749_82:4:2205:14156:119021#0/1 50 0 50 0
UNC13-SN749_82:4:2205:14156:119021#0/2 50 0 50 0
UNC13-SN749_82:4:2208:12292:2912#0/1 50 0 50 0
UNC13-SN749_82:4:2208:12292:2912#0/2 50 0 50 0
UNC13-SN749_82:4:1206:16407:33425#0/1 50 0 50 0
UNC13-SN749_82:4:1206:16407:33425#0/2 47 3 50 0
UNC13-SN749_82:4:1202:18836:173560#0/1 50 0 50 0
UNC13-SN749_82:4:1202:18836:173560#0/2 50 0 50 0
UNC13-SN749_82:4:1208:6820:154521#0/1 50 0 50 0
UNC13-SN749_82:4:1208:6820:154521#0/2 50 0 50 0
UNC13-SN749_82:4:2106:19656:44700#0/1 50 0 50 0
UNC13-SN749_82:4:2106:19656:44700#0/2 50 0 50 0
UNC13-SN749_82:4:1107:5130:96081#0/1 50 0 50 0
UNC13-SN749_82:4:1107:5130:96081#0/2 50 0 50 0
UNC13-SN749_82:4:2104:15239:138353#0/1 50 0 50 0
UNC13-SN749_82:4:2104:15239:138353#0/2 50 0 50 0
UNC13-SN749_82:4:1105:9965:33565#0/1 50 0 50 0
UNC13-SN749_82:4:1105:9965:33565#0/2 50 0 50 0
UNC13-SN749_82:4:1107:4084:99270#0/1 50 0 50 0
UNC13-SN749_82:4:1107:4084:99270#0/2 50 0 50 0
UNC13-SN749_82:4:1203:9509:155415#0/1 50 0 50 0
UNC13-SN749_82:4:1203:9509:155415#0/2 50 0 50 0
UNC13-SN749_82:4:2208:14450:40861#0/1 50 0 50 0
UNC13-SN749_82:4:2208:14450:40861#0/2 50 0 50 0
UNC13-SN749_82:4:1104:14945:73411#0/1 50 0 50 0
UNC13-SN749_82:4:1104:14945:73411#0/2 50 0 50 0
UNC13-SN749_82:4:1102:14879:131528#0/1 50 0 50 0
UNC13-SN749_82:4:1102:14879:131528#0/2 50 0 50 0
UNC13-SN749_82:4:1103:8293:155183#0/1 50 0 50 0
UNC13-SN749_82:4:1103:8293:155183#0/2 50 0 50 0
UNC13-SN749_82:4:1104:4554:132842#0/1 49 0 49 1
UNC13-SN749_82:4:1104:4554:132842#0/2 50 0 50 0
UNC13-SN749_82:4:2101:4020:137010#0/1 50 0 50 0
UNC13-SN749_82:4:2101:4020:137010#0/2 50 0 50 0
UNC13-SN749_82:4:1103:4626:111414#0/1 50 0 50 0
UNC13-SN749_82:4:1103:4626:111414#0/2 50 0 50 0
UNC13-SN749_82:4:1208:14573:151061#0/1 49 0 49 1
UNC13-SN749_82:4:1208:14573:151061#0/2 44 6 50 0
UNC13-SN749_82:4:2207:12540:33053#0/1 50 0 50 0
UNC13-SN749_82:4:2207:12540:33053#0/2 50 0 50 0
UNC13-SN749_82:4:2203:8041:118344#0/1 50 0 50 0
UNC13-SN749_82:4:2203:8041:118344#0/2 49 1 50 0
UNC13-SN749_82:4:1107:15652:20519#0/1 50 0 50 0
UNC13-SN749_82:4:1107:15652:20519#0/2 50 0 50 0
UNC13-SN749_82:4:1207:15614:118116#0/1 50 0 50 0
UNC13-SN749_82:4:1207:15614:118116#0/2 50 0 50 0
UNC13-SN749_82:4:2204:2053:81101#0/1 50 0 50 0
UNC13-SN749_82:4:2204:2053:81101#0/2 49 0 49 1
UNC13-SN749_82:4:2106:12376:17986#0/1 50 0 50 0
UNC13-SN749_82:4:2106:12376:17986#0/2 49 0 49 1
UNC13-SN749_82:4:2203:8946:90408#0/1 50 0 50 0
UNC13-SN749_82:4:2203:8946:90408#0/2 50 0 50 0
UNC13-SN749_82:4:1204:21283:73994#0/1 50 0 50 0
UNC13-SN749_82:4:1204:21283:73994#0/2 50 0 50 0
UNC13-SN749_82:4:2101:6264:154887#0/1 49 0 49 1
UNC13-SN749_82:4:2101:6264:154887#0/2 46 0 46 4
UNC13-SN749_82:4:2105:13999:98840#0/1 50 0 50 0
UNC13-SN749_82:4:2105:13999:98840#0/2 50 0 50 0
UNC13-SN749_82:4:2201:8383:196584#0/1 50 0 50 0
UNC13-SN749_82:4:2201:8383:196584#0/2 50 0 50 0
UNC13-SN749_82:4:2206:2439:179818#0/1 50 0 50 0
UNC13-SN749_82:4:2206:2439:179818#0/2 50 0 50 0
UNC13-SN749_82:4:1107:5586:132230#0/1 50 0 50 0
UNC13-SN749_82:4:1107:5586:132230#0/2 50 0 50 0
UNC13-SN749_82:4:2103:1646:86482#0/1 50 0 50 0
UNC13-SN749_82:4:2103:1646:86482#0/2 50 0 50 0
UNC13-SN749_82:4:2208:10914:151748#0/1 50 0 50 0
UNC13-SN749_82:4:2208:10914:151748#0/2 50 0 50 0
UNC13-SN749_82:4:1104:2975:65919#0/1 50 0 50 0
UNC13-SN749_82:4:1104:2975:65919#0/2 49 1 50 0
UNC13-SN749_82:4:1208:1887:105407#0/1 50 0 50 0
UNC13-SN749_82:4:1208:1887:105407#0/2 49 0 49 1
UNC13-SN749_82:4:2107:18162:20016#0/1 50 0 50 0
UNC13-SN749_82:4:2107:18162:20016#0/2 50 0 50 0
UNC13-SN749_82:4:2201:4265:25242#0/1 50 0 50 0
UNC13-SN749_82:4:2201:4265:25242#0/2 50 0 50 0
UNC13-SN749_82:4:1101:13694:166760#0/1 50 0 50 0
UNC13-SN749_82:4:1101:13694:166760#0/2 50 0 50 0
UNC13-SN749_82:4:1207:15499:25129#0/1 50 0 50 0
UNC13-SN749_82:4:1207:15499:25129#0/2 50 0 50 0
UNC13-SN749_82:4:2103:15947:113836#0/1 45 0 45 5
UNC13-SN749_82:4:2103:15947:113836#0/2 50 0 50 0
UNC13-SN749_82:4:2104:10852:172975#0/1 50 0 50 0
UNC13-SN749_82:4:2104:10852:172975#0/2 50 0 50 0
UNC13-SN749_82:4:2108:16944:14904#0/1 50 0 50 0
UNC13-SN749_82:4:2108:16944:14904#0/2 50 0 50 0
UNC13-SN749_82:4:2202:19043:39077#0/1 50 0 50 0
UNC13-SN749_82:4:2202:19043:39077#0/2 50 0 50 0
UNC13-SN749_82:4:2206:7465:142201#0/1 50 0 50 0
UNC13-SN749_82:4:2206:7465:142201#0/2 50 0 50 0
UNC13-SN749_82:4:2108:20474:65961#0/1 50 0 50 0
UNC13-SN749_82:4:2108:20474:65961#0/2 50 0 50 0
UNC13-SN749_82:4:2106:8621:56123#0/1 48 0 48 2
UNC13-SN749_82:4:2106:8621:56123#0/2 49 0 49 1
UNC13-SN749_82:4:2205:7684:151419#0/1 48 1 49 1
UNC13-SN749_82:4:2205:7684:151419#0/2 48 0 48 2
UNC13-SN749_82:4:2102:8633:151820#0/1 50 0 50 0
UNC13-SN749_82:4:2102:8633:151820#0/2 50 0 50 0
UNC13-SN749_82:4:2201:8396:98769#0/1 50 0 50 0
UNC13-SN749_82:4:2201:8396:98769#0/2 50 0 50 0
UNC13-SN749_82:4:2204:5511:16315#0/1 50 0 50 0
UNC13-SN749_82:4:2204:5511:16315#0/2 50 0 50 0
UNC13-SN749_82:4:2208:9356:94604#0/1 50 0 50 0
UNC13-SN749_82:4:2208:9356:94604#0/2 50 0 50 0
UNC13-SN749_82:4:1104:7701:7061#0/1 50 0 50 0
UNC13-SN749_82:4:1104:7701:7061#0/2 50 0 50 0
UNC13-SN749_82:4:2107:6534:122600#0/1 50 0 50 0
UNC13-SN749_82:4:2107:6534:122600#0/2 50 0 50 0
UNC13-SN749_82:4:2104:14967:65658#0/1 50 0 50 0
UNC13-SN749_82:4:2104:14967:65658#0/2 49 0 49 1
UNC13-SN749_82:4:2202:5051:103794#0/1 50 0 50 0
UNC13-SN749_82:4:2202:5051:103794#0/2 50 0 50 0
UNC13-SN749_82:4:2205:14303:183496#0/1 50 0 50 0
UNC13-SN749_82:4:2205:14303:183496#0/2 50 0 50 0
UNC13-SN749_82:4:1207:19952:44883#0/1 50 0 50 0
UNC13-SN749_82:4:1207:19952:44883#0/2 50 0 50 0
UNC13-SN749_82:4:1202:5894:194051#0/1 50 0 50 0
UNC13-SN749_82:4:1202:5894:194051#0/2 44 0 44 6
UNC13-SN749_82:4:1206:10198:197469#0/1 50 0 50 0
UNC13-SN749_82:4:1206:10198:197469#0/2 50 0 50 0
UNC13-SN749_82:4:2204:14541:115097#0/1 50 0 50 0
UNC13-SN749_82:4:2204:14541:115097#0/2 50 0 50 0
UNC13-SN749_82:4:2104:11721:78497#0/1 50 0 50 0
UNC13-SN749_82:4:2104:11721:78497#0/2 50 0 50 0
UNC13-SN749_82:4:1103:6505:38462#0/1 50 0 50 0
UNC13-SN749_82:4:1103:6505:38462#0/2 50 0 50 0
UNC13-SN749_82:4:1107:13821:5197#0/1 50 0 50 0
UNC13-SN749_82:4:1107:13821:5197#0/2 46 0 46 4
UNC13-SN749_82:4:2103:18661:8791#0/1 50 0 50 0
UNC13-SN749_82:4:2103:18661:8791#0/2 50 0 50 0
UNC13-SN749_82:4:2104:16641:49446#0/1 50 0 50 0
UNC13-SN749_82:4:2104:16641:49446#0/2 50 0 50 0
UNC13-SN749_82:4:2202:12485:117028#0/1 50 0 50 0
UNC13-SN749_82:4:2202:12485:117028#0/2 47 0 47 3
UNC13-SN749_82:4:2204:6677:77460#0/1 48 0 48 2
UNC13-SN749_82:4:2204:6677:77460#0/2 45 0 45 5
UNC13-SN749_82:4:2205:9029:46596#0/1 50 0 50 0
UNC13-SN749_82:4:2205:9029:46596#0/2 48 0 48 2
UNC13-SN749_82:4:2207:11978:174905#0/1 50 0 50 0
UNC13-SN749_82:4:2207:11978:174905#0/2 50 0 50 0
UNC13-SN749_82:4:2208:15024:181626#0/1 49 0 49 1
UNC13-SN749_82:4:2208:15024:181626#0/2 47 0 47 3
UNC13-SN749_82:4:1107:15839:48685#0/1 50 0 50 0
UNC13-SN749_82:4:1107:15839:48685#0/2 50 0 50 0
UNC13-SN749_82:4:2208:1951:144423#0/1 50 0 50 0
UNC13-SN749_82:4:2208:1951:144423#0/2 50 0 50 0
UNC13-SN749_82:4:2204:18235:120757#0/1 50 0 50 0
UNC13-SN749_82:4:2204:18235:120757#0/2 48 0 48 2
UNC13-SN749_82:4:2201:10506:95000#0/1 45 0 45 5
UNC13-SN749_82:4:2201:10506:95000#0/2 50 0 50 0
UNC13-SN749_82:4:1204:18291:72688#0/1 48 0 48 2
UNC13-SN749_82:4:1204:18291:72688#0/2 0 0 0 0
UNC13-SN749_82:4:1205:8368:120208#0/1 50 0 50 0
UNC13-SN749_82:4:1205:8368:120208#0/2 50 0 50 0
UNC13-SN749_82:4:2108:19088:173620#0/1 50 0 50 0
UNC13-SN749_82:4:2108:19088:173620#0/2 50 0 50 0
UNC13-SN749_82:4:2205:21445:94502#0/1 47 3 50 0
UNC13-SN749_82:4:2205:21445:94502#0/2 50 0 50 0
UNC13-SN749_82:4:2206:2949:130944#0/1 50 0 50 0
UNC13-SN749_82:4:2206:2949:130944#0/2 50 0 50 0
UNC13-SN749_82:4:1201:4645:160233#0/1 50 0 50 0
UNC13-SN749_82:4:1201:4645:160233#0/2 50 0 50 0
UNC13-SN749_82:4:2207:17772:154887#0/1 50 0 50 0
UNC13-SN749_82:4:2207:17772:154887#0/2 48 0 48 2
UNC13-SN749_82:4:1203:15243:78352#0/1 50 0 50 0
UNC13-SN749_82:4:1203:15243:78352#0/2 48 0 48 2
UNC13-SN749_82:4:1205:1978:176785#0/1 50 0 50 0
UNC13-SN749_82:4:1205:1978:176785#0/2 46 0 46 4
UNC13-SN749_82:4:1103:5199:41115#0/1 50 0 50 0
UNC13-SN749_82:4:1103:5199:41115#0/2 49 0 49 1
