Statistic	Chromosome	Value
AssemblyLength	ALL	0
ReferenceLength	ALL	4320
AlignedLength	ALL	0
IslandLength	ALL	0
Coverage	ALL	0
Multiplicity	ALL	NA
Validity	ALL	NA
Parsimony	ALL	NA
ReferenceLength	ECOLI_SCAFFOLD_1	2720
AlignedLength	ECOLI_SCAFFOLD_1	0
IslandLength	ECOLI_SCAFFOLD_1	0
Coverage	ECOLI_SCAFFOLD_1	0
Multiplicity	ECOLI_SCAFFOLD_1	NA
ReferenceLength	ECOLI_SCAFFOLD_2	1600
AlignedLength	ECOLI_SCAFFOLD_2	0
IslandLength	ECOLI_SCAFFOLD_2	0
Coverage	ECOLI_SCAFFOLD_2	0
Multiplicity	ECOLI_SCAFFOLD_2	NA
