##FastQC	{{.*}}
>>Basic Statistics	pass
#Measure	Value	
Filename	read.fq	
File type	Conventional base calls	
Encoding	Illumina 1.5	
Total Sequences	3	
Filtered Sequences	0	
Sequence length	76	
%GC	39	
>>END_MODULE
>>Per base sequence quality	fail
#Base	Mean	Median	Lower Quartile	Upper Quartile	10th Percentile	90th Percentile
1	37.666666666666664	0.0	0.0	0.0	0.0	0.0
2	34.333333333333336	0.0	0.0	0.0	0.0	0.0
3	31.0	0.0	0.0	0.0	0.0	0.0
4	37.333333333333336	0.0	0.0	0.0	0.0	0.0
5	36.333333333333336	0.0	0.0	0.0	0.0	0.0
6	35.666666666666664	0.0	0.0	0.0	0.0	0.0
7	36.0	0.0	0.0	0.0	0.0	0.0
8	37.333333333333336	0.0	0.0	0.0	0.0	0.0
9	33.666666666666664	0.0	0.0	0.0	0.0	0.0
10-14	35.53333333333333	0.0	0.0	0.0	0.0	0.0
15-19	35.266666666666666	0.0	0.0	0.0	0.0	0.0
20-24	37.2	0.0	0.0	0.0	0.0	0.0
25-29	34.13333333333333	0.0	0.0	0.0	0.0	0.0
30-34	33.53333333333333	0.0	0.0	0.0	0.0	0.0
35-39	35.13333333333334	0.0	0.0	0.0	0.0	0.0
40-44	35.0	0.0	0.0	0.0	0.0	0.0
45-49	34.86666666666666	0.0	0.0	0.0	0.0	0.0
50-54	31.4	0.0	0.0	0.0	0.0	0.0
55-59	28.333333333333336	0.0	0.0	0.0	0.0	0.0
60-64	29.0	0.0	0.0	0.0	0.0	0.0
65-69	29.4	0.0	0.0	0.0	0.0	0.0
70-74	21.8	0.0	0.0	0.0	0.0	0.0
75-76	14.166666666666668	0.0	0.0	0.0	0.0	0.0
>>END_MODULE
>>Per sequence quality scores	pass
#Quality	Count
29	1.0
30	0.0
31	0.0
32	1.0
33	0.0
34	0.0
35	1.0
>>END_MODULE
>>Per base sequence content	fail
#Base	G	A	T	C
1	0.0	0.0	66.66666666666666	33.33333333333333
2	0.0	0.0	100.0	0.0
3	0.0	0.0	66.66666666666666	33.33333333333333
4	33.33333333333333	33.33333333333333	33.33333333333333	0.0
5	33.33333333333333	33.33333333333333	0.0	33.33333333333333
6	0.0	33.33333333333333	33.33333333333333	33.33333333333333
7	33.33333333333333	33.33333333333333	33.33333333333333	0.0
8	33.33333333333333	33.33333333333333	33.33333333333333	0.0
9	33.33333333333333	33.33333333333333	0.0	33.33333333333333
10-14	20.0	13.333333333333334	33.33333333333333	33.33333333333333
15-19	13.333333333333334	26.666666666666668	26.666666666666668	33.33333333333333
20-24	26.666666666666668	26.666666666666668	13.333333333333334	33.33333333333333
25-29	13.333333333333334	40.0	33.33333333333333	13.333333333333334
30-34	13.333333333333334	60.0	13.333333333333334	13.333333333333334
35-39	33.33333333333333	46.666666666666664	13.333333333333334	6.666666666666667
40-44	20.0	40.0	20.0	20.0
45-49	13.333333333333334	40.0	13.333333333333334	33.33333333333333
50-54	13.333333333333334	40.0	26.666666666666668	20.0
55-59	40.0	53.333333333333336	0.0	6.666666666666667
60-64	26.666666666666668	13.333333333333334	33.33333333333333	26.666666666666668
65-69	13.333333333333334	53.333333333333336	20.0	13.333333333333334
70-74	13.333333333333334	40.0	26.666666666666668	20.0
75-76	16.666666666666664	66.66666666666666	16.666666666666664	0.0
>>END_MODULE
>>Per base GC content	fail
#Base	%GC
1	33.33333333333333
2	0.0
3	33.33333333333333
4	33.33333333333333
5	66.66666666666666
6	33.33333333333333
7	33.33333333333333
8	33.33333333333333
9	66.66666666666666
10-14	53.333333333333336
15-19	46.666666666666664
20-24	60.0
25-29	26.666666666666668
30-34	26.666666666666668
35-39	40.0
40-44	40.0
45-49	46.666666666666664
50-54	33.33333333333333
55-59	46.666666666666664
60-64	53.333333333333336
65-69	26.666666666666668
70-74	33.33333333333333
75-76	16.666666666666664
>>END_MODULE
>>Per sequence GC content	fail
#GC Content	Count
0	0.0
1	0.0
2	0.0
3	0.0
4	0.0
5	0.0
6	0.0
7	0.0
8	0.0
9	0.0
10	0.0
11	0.0
12	0.0
13	0.0
14	0.0
15	0.0
16	0.0
17	0.0
18	0.0
19	0.0
20	0.0
21	0.0
22	0.0
23	0.0
24	0.5
25	1.0
26	0.5
27	0.0
28	0.0
29	0.0
30	0.0
31	0.0
32	0.0
33	0.0
34	0.0
35	0.0
36	0.0
37	0.0
38	0.0
39	0.0
40	0.0
41	0.0
42	0.0
43	0.5
44	0.5
45	0.0
46	0.0
47	0.0
48	0.0
49	0.0
50	0.0
51	0.5
52	0.5
53	0.0
54	0.0
55	0.0
56	0.0
57	0.0
58	0.0
59	0.0
60	0.0
61	0.0
62	0.0
63	0.0
64	0.0
65	0.0
66	0.0
67	0.0
68	0.0
69	0.0
70	0.0
71	0.0
72	0.0
73	0.0
74	0.0
75	0.0
76	0.0
77	0.0
78	0.0
79	0.0
80	0.0
81	0.0
82	0.0
83	0.0
84	0.0
85	0.0
86	0.0
87	0.0
88	0.0
89	0.0
90	0.0
91	0.0
92	0.0
93	0.0
94	0.0
95	0.0
96	0.0
97	0.0
98	0.0
99	0.0
100	0.0
>>END_MODULE
>>Per base N content	pass
#Base	N-Count
1	0.0
2	0.0
3	0.0
4	0.0
5	0.0
6	0.0
7	0.0
8	0.0
9	0.0
10-14	0.0
15-19	0.0
20-24	0.0
25-29	0.0
30-34	0.0
35-39	0.0
40-44	0.0
45-49	0.0
50-54	0.0
55-59	0.0
60-64	0.0
65-69	0.0
70-74	0.0
75-76	0.0
>>END_MODULE
>>Sequence Length Distribution	pass
#Length	Count
76	3.0
>>END_MODULE
>>Sequence Duplication Levels	pass
#Total Duplicate Percentage	0.0
#Duplication Level	Relative count
1	100.0
2	0.0
3	0.0
4	0.0
5	0.0
6	0.0
7	0.0
8	0.0
9	0.0
10++	0.0
>>END_MODULE
>>Overrepresented sequences	fail
#Sequence	Count	Percentage	Possible Source
TTTGCAGAATCCTGCCAAACAAAGGAACTGAATAGGCTGTGGGCAAAGCA	1	33.33333333333333	No Hit
TTTTACAGCACATGCATGTTAGGCAAGTATCAAAAAAAAAAAAATCACAA	1	33.33333333333333	No Hit
CTCAGTTTGCTCGTGCTCTGCCCTTTATCAACAGGAATGTCACTTCCAGC	1	33.33333333333333	No Hit
>>END_MODULE
>>Kmer Content	pass
>>END_MODULE
