"RowName"	"sample1"	"sample2"
"mir1"	17.3354345745888	17.4198102951327
"mir2"	18.482612398184	18.476711613923
"mir3"	7.36464281647492	8.42198870401921
"mir4"	18.0600529837904	18.1956053494145
"mir5"	17.158445913015	16.7220040842069
"mir6"	15.1293928095364	15.3458971069891
"mir7"	13.6391683726754	13.2252818098567
"mir8"	0	0
