"chr"	"starts"	"ends"	"counts"	"del"	"ins"	"inv"	"trans"	"sample"
"chr1"	49	60	3	1	2	0	0	"s1,s2"
"chr1"	85	96	2	0	0	1	1	"s1,s3"
"chr2"	1	12	1	1	0	0	0	"s2"
"chr2"	25	36	2	0	1	1	0	"s2,s3"
"chr3"	1	12	2	2	0	0	0	"s1,s2"
