"ID"	"logFC"	"logCPM"	"pvalue"	"fdr"
"Gene9"	1.77066323273131	14.0919207539377	0.0144783681711386	0.136443535850147
"Gene1"	-3.79966284909626	14.5628698394211	0.0457938435485327	0.136443535850147
"Gene4"	-3.80462376269158	14.5628698394211	0.0818661215100865	0.136443535850147
"Gene5"	-3.80462376269158	14.5628698394211	0.0818661215100867	0.136443535850147
"Gene3"	-3.80462376269158	14.5628698394211	0.081866121510088	0.136443535850147
"Gene6"	-3.80462376269158	14.5628698394211	0.0818661215100882	0.136443535850147
"Gene7"	1.46946174387919	14.166600601262	0.138540427267744	0.197914896096778
"Gene10"	1.35625699364171	13.4917285324056	0.251558527549004	0.314448159436255
"Gene2"	0.66059496940034	13.7800378748644	0.528582888077044	0.587314320085605
"Gene8"	0.399895615038016	12.5381141369971	0.947320358532129	0.947320358532129
