"ID"	"predicted_mature"	"logFC"	"PValue"
"2_232325003_232325137_-"	""	"-13.96321"	"0.0006366805"
"20_2637509_2637643_+"	""	"-12.57555"	"0.0011014618"
"16_29613604_29613730_-"	"CACAATCCTCGCTCGGCTGCGGCT"	"-11.74830"	"0.0026192045"
"22_46508607_46508713_+"	""	"-11.74830"	"0.0027411802"
"21_9827235_9827311_+"	""	" 11.67573"	"0.0031647148"
