ID	Chromosome	Start	Length	Strand	Annotation1	Score
reg1	chr1	100	11	1	"A1:1"	0.1
reg2	chr1	200	50	-1	"A1:2"	0.2
reg3	chr1	300	0	1	"A1:3"	0.3
reg4	chr1	400	14	NA	"A1:4"	0.4
reg5	chr2	500	15	1	NA	0.5
NA	chr2	600	16	-1	"A1:6"	0.6
reg7	NA	700	17	1	"A1:7"	0.7
