ID	Chromosome	Start	Length	Strand	Annotation2	Score
regB9	chr2	900	19	-1	"A2:9"	1.9
regB1	chr1	100	11	1	"A2:1"	1.1
reg3	chr1	300	0	1	"A2:3"	1.3
regB4	chr1	400	14	NA	"A2:4"	1.4
regB5	chr2	500	15	1	NA	1.5
NA	chr2	600	16	-1	"A2:6"	1.6
regB7	NA	700	17	1	"A2:7"	1.7
regB8	chr1	800	18	1	"A2:8"	1.8
