"alt.chrom"	"alt.pos"	"alt.ref"	"alt.alt"	"alt.tissue"	"sample.ad_ref/(sample.ad_ref+sample.ad_alt)"	"alt.called_samples"	"patient.patient_id"	"patient.age_at_initial_pathologic_diagnosis"	"patient.year_of_initial_pathologic_diagnosis"	"treatment.drug_name"	"treatment.days_to_drug_treatment_start"
"15"	"20352"	"T"	"A"	"tumor"	"1"	NA	"GGGA-31-8465"	"56"	"1993"	"Taxol"	"4"
"15"	"20352"	"T"	"A"	"tumor"	"1"	NA	"GGGA-31-8465"	"56"	"1993"	"Cisplatin"	"4"
"15"	"20352"	"T"	"A"	"tumor"	"1"	NA	"GGGA-31-8465"	"56"	"1993"	"Taxotere"	"598"
"15"	"20352"	"T"	"G"	"tumor"	"1"	NA	"GGGA-31-8465"	"56"	"1993"	"Taxol"	"4"
"15"	"20352"	"T"	"G"	"tumor"	"1"	NA	"GGGA-31-8465"	"56"	"1993"	"Cisplatin"	"4"
"15"	"20352"	"T"	"G"	"tumor"	"1"	NA	"GGGA-31-8465"	"56"	"1993"	"Taxotere"	"598"
"15"	"20352"	"T"	"G"	"normal"	"0"	NA	"TGGT-18-9966"	"58"	"1993"	"Taxol"	"21"
"2"	"12057"	"A"	"C"	"tumor"	"1"	"17"	"TGGT-18-9966"	"58"	"1993"	"Taxol"	"21"
"12"	"13923"	"A"	"G"	"tumor"	"0"	NA	"TGGT-18-9966"	"58"	"1993"	"Taxol"	"21"
